single_tb/vcd/cpu_INSTANCE.vcd
$date
	Sun May 26 23:05:28 2024
$end
$version
	Icarus Verilog
$end
$timescale
	1ps
$end
$scope module tb_cpu $end
$var wire 1 ! rst $end
$var reg 1 " clk $end
$var integer 32 # i [31:0] $end
$scope module cpu_INSTANCE $end
$var wire 1 " clk $end
$var wire 1 ! rst $end
$var wire 1 $ write_reg_enable $end
$var wire 32 % rd_write_data [31:0] $end
$var wire 2 & write_ram_flag [1:0] $end
$var wire 32 ' rs2_data [31:0] $end
$var wire 5 ( rs2_addr [4:0] $end
$var wire 32 ) rs1_data [31:0] $end
$var wire 5 * rs1_addr [4:0] $end
$var wire 32 + reg_9 [31:0] $end
$var wire 32 , reg_8 [31:0] $end
$var wire 32 - reg_7 [31:0] $end
$var wire 32 . reg_6 [31:0] $end
$var wire 32 / reg_5 [31:0] $end
$var wire 32 0 reg_4 [31:0] $end
$var wire 32 1 reg_3 [31:0] $end
$var wire 32 2 reg_2 [31:0] $end
$var wire 32 3 reg_15 [31:0] $end
$var wire 32 4 reg_14 [31:0] $end
$var wire 32 5 reg_13 [31:0] $end
$var wire 32 6 reg_12 [31:0] $end
$var wire 32 7 reg_11 [31:0] $end
$var wire 32 8 reg_10 [31:0] $end
$var wire 32 9 reg_1 [31:0] $end
$var wire 32 : reg_0 [31:0] $end
$var wire 3 ; read_ram_flag [2:0] $end
$var wire 5 < rd_addr [4:0] $end
$var wire 32 = ram_out [31:0] $end
$var wire 32 > ram_8 [31:0] $end
$var wire 32 ? ram_7 [31:0] $end
$var wire 32 @ ram_6 [31:0] $end
$var wire 32 A ram_5 [31:0] $end
$var wire 32 B ram_4 [31:0] $end
$var wire 32 C ram_3 [31:0] $end
$var wire 32 D ram_2 [31:0] $end
$var wire 32 E ram_1 [31:0] $end
$var wire 32 F ram_0 [31:0] $end
$var wire 32 G pc_rom_addr [31:0] $end
$var wire 2 H pc_condition [1:0] $end
$var wire 32 I pc [31:0] $end
$var wire 32 J out_alu [31:0] $end
$var wire 7 K opcode [6:0] $end
$var wire 32 L next_pc [31:0] $end
$var wire 1 M wb_aluOut_or_memOut $end
$var wire 32 N instr [31:0] $end
$var wire 32 O in_alu_b [31:0] $end
$var wire 32 P in_alu_a [31:0] $end
$var wire 32 Q imm_32 [31:0] $end
$var wire 7 R func7 [6:0] $end
$var wire 3 S func3 [2:0] $end
$var wire 1 T branch_enable $end
$var wire 5 U alu_opt [4:0] $end
$var wire 2 V alu_b_in_rs2Data_or_imm32_or_4 [1:0] $end
$var wire 1 W alu_a_in_rs1_or_pc $end
$scope module ALU_INSTANCE $end
$var wire 32 X b [31:0] $end
$var wire 5 Y alu_opt [4:0] $end
$var wire 32 Z a [31:0] $end
$var reg 1 T branch_enable $end
$var reg 32 [ out [31:0] $end
$upscope $end
$scope module CONTROLLER_INSTANCE $end
$var wire 7 \ opcode [6:0] $end
$var wire 7 ] func7 [6:0] $end
$var wire 3 ^ func3 [2:0] $end
$var reg 1 W alu_a_in_rs1_or_pc $end
$var reg 2 _ alu_b_in_rs2Data_or_imm32_or_4 [1:0] $end
$var reg 5 ` alu_opt [4:0] $end
$var reg 1 M wb_aluOut_or_memOut $end
$var reg 2 a pc_condition [1:0] $end
$var reg 3 b read_ram_flag [2:0] $end
$var reg 2 c write_ram_flag [1:0] $end
$var reg 1 $ write_reg_enable $end
$upscope $end
$scope module ID_INSTANCE $end
$var wire 5 d rs2_addr [4:0] $end
$var wire 5 e rs1_addr [4:0] $end
$var wire 5 f rd_addr [4:0] $end
$var wire 7 g opcode [6:0] $end
$var wire 32 h instr [31:0] $end
$var wire 7 i func7 [6:0] $end
$var wire 3 j func3 [2:0] $end
$upscope $end
$scope module IMM_INSTANCE $end
$var wire 7 k opcode [6:0] $end
$var wire 32 l instr [31:0] $end
$var reg 32 m imm_32 [31:0] $end
$upscope $end
$scope module MUX_ALU_A_INSTANCE $end
$var wire 1 W signal $end
$var wire 32 n out [31:0] $end
$var wire 32 o b [31:0] $end
$var wire 32 p a [31:0] $end
$upscope $end
$scope module MUX_ALU_B_INSTANCE $end
$var wire 32 q b [31:0] $end
$var wire 32 r c [31:0] $end
$var wire 2 s signal [1:0] $end
$var wire 32 t out [31:0] $end
$var wire 32 u a [31:0] $end
$upscope $end
$scope module MUX_WB_INSTANCE $end
$var wire 32 v a [31:0] $end
$var wire 1 M signal $end
$var wire 32 w out [31:0] $end
$var wire 32 x b [31:0] $end
$upscope $end
$scope module NEXT_PC_INSTANCE $end
$var wire 1 T branch_enable $end
$var wire 1 " clk $end
$var wire 32 y imm_32 [31:0] $end
$var wire 2 z pc_condition [1:0] $end
$var wire 1 ! rst $end
$var wire 32 { rs1_data [31:0] $end
$var wire 32 | pc [31:0] $end
$var reg 32 } next_pc [31:0] $end
$upscope $end
$scope module PC_INSTANCE $end
$var wire 1 " clk $end
$var wire 32 ~ next_pc [31:0] $end
$var wire 1 ! rst $end
$var wire 32 !" pc_rom_addr [31:0] $end
$var reg 32 "" pc [31:0] $end
$upscope $end
$scope module RAM_INSTANCE $end
$var wire 1 " clk $end
$var wire 32 #" ram_0 [31:0] $end
$var wire 32 $" ram_1 [31:0] $end
$var wire 32 %" ram_2 [31:0] $end
$var wire 32 &" ram_3 [31:0] $end
$var wire 32 '" ram_4 [31:0] $end
$var wire 32 (" ram_5 [31:0] $end
$var wire 32 )" ram_6 [31:0] $end
$var wire 32 *" ram_7 [31:0] $end
$var wire 32 +" ram_8 [31:0] $end
$var wire 32 ," ram_addr [31:0] $end
$var wire 3 -" read_ram_flag [2:0] $end
$var wire 1 ! rst $end
$var wire 2 ." write_ram_flag [1:0] $end
$var wire 32 /" write_ram_data [31:0] $end
$var reg 32 0" ram_out [31:0] $end
$upscope $end
$scope module REG_FILE_INSTANCE $end
$var wire 1 " clk $end
$var wire 5 1" rd_addr [4:0] $end
$var wire 32 2" reg_0 [31:0] $end
$var wire 32 3" reg_1 [31:0] $end
$var wire 32 4" reg_10 [31:0] $end
$var wire 32 5" reg_11 [31:0] $end
$var wire 32 6" reg_12 [31:0] $end
$var wire 32 7" reg_13 [31:0] $end
$var wire 32 8" reg_14 [31:0] $end
$var wire 32 9" reg_15 [31:0] $end
$var wire 32 :" reg_2 [31:0] $end
$var wire 32 ;" reg_3 [31:0] $end
$var wire 32 <" reg_4 [31:0] $end
$var wire 32 =" reg_5 [31:0] $end
$var wire 32 >" reg_6 [31:0] $end
$var wire 32 ?" reg_7 [31:0] $end
$var wire 32 @" reg_8 [31:0] $end
$var wire 32 A" reg_9 [31:0] $end
$var wire 5 B" rs1_addr [4:0] $end
$var wire 5 C" rs2_addr [4:0] $end
$var wire 1 ! rst $end
$var wire 32 D" rd_write_data [31:0] $end
$var wire 1 $ write_reg_enable $end
$var wire 32 E" rs2_data [31:0] $end
$var wire 32 F" rs1_data [31:0] $end
$upscope $end
$scope module ROM_INSTANCE $end
$var wire 32 G" instr [31:0] $end
$var wire 32 H" pc [31:0] $end
$upscope $end
$upscope $end
$upscope $end
$enddefinitions $end
#0
$dumpvars
b0 H"
b10011 G"
b0 F"
b0 E"
b0 D"
b0 C"
b0 B"
bx A"
bx @"
bx ?"
bx >"
bx ="
bx <"
bx ;"
bx :"
bx 9"
bx 8"
bx 7"
bx 6"
bx 5"
bx 4"
bx 3"
bx 2"
b0 1"
b0 0"
b0 /"
b0 ."
b0 -"
b0 ,"
b10010001101000101011001111000 +"
b10010001101000101011001111000 *"
b10010001101000101011001111000 )"
b10010001101000101011001111000 ("
b11110010001101000101011001111000 '"
b10010001101000101011001111000 &"
b110011001100110011001100110011 %"
b100010001000100010001000100010 $"
b10010001101000101011001111000 #"
b0 ""
b0 !"
b100 ~
b100 }
b0 |
b0 {
b0 z
b0 y
b0 x
b0 w
b0 v
b0 u
b0 t
b1 s
b100 r
b0 q
b0 p
b0 o
b0 n
b0 m
b10011 l
b10011 k
b0 j
b0 i
b10011 h
b10011 g
b0 f
b0 e
b0 d
b0 c
b0 b
b0 a
b0 `
b1 _
b0 ^
b0 ]
b10011 \
b0 [
b0 Z
b0 Y
b0 X
0W
b1 V
b0 U
0T
b0 S
b0 R
b0 Q
b0 P
b0 O
b10011 N
0M
b100 L
b10011 K
b0 J
b0 I
b0 H
b0 G
b10010001101000101011001111000 F
b100010001000100010001000100010 E
b110011001100110011001100110011 D
b10010001101000101011001111000 C
b11110010001101000101011001111000 B
b10010001101000101011001111000 A
b10010001101000101011001111000 @
b10010001101000101011001111000 ?
b10010001101000101011001111000 >
b0 =
b0 <
b0 ;
bx :
bx 9
bx 8
bx 7
bx 6
bx 5
bx 4
bx 3
bx 2
bx 1
bx 0
bx /
bx .
bx -
bx ,
bx +
b0 *
b0 )
b0 (
b0 '
b0 &
b0 %
1$
b0 #
1"
z!
$end
#20000
0"
#40000
b100100011000000000000 %
b100100011000000000000 w
b100100011000000000000 D"
b100100011000000000000 J
b100100011000000000000 [
b100100011000000000000 v
b100100011000000000000 ,"
b100100011000000000000 O
b100100011000000000000 X
b100100011000000000000 t
b100100011000000000000 Q
b100100011000000000000 m
b100100011000000000000 q
b100100011000000000000 y
b1000 L
b1000 }
b1000 ~
bx P
bx Z
bx n
bx '
bx u
bx /"
bx E"
bx )
bx p
bx {
bx F"
b10001 U
b10001 Y
b10001 `
b110111 k
b11 S
b11 ^
b11 j
b100 <
b100 f
b100 1"
b1 (
b1 d
b1 C"
b100 *
b100 e
b100 B"
b110111 K
b110111 \
b110111 g
b1 G
b1 !"
b100100011001000110111 N
b100100011001000110111 h
b100100011001000110111 l
b100100011001000110111 G"
b100 I
b100 o
b100 |
b100 ""
b100 H"
b0 :
b0 2"
1"
b1 #
#60000
0"
#80000
b0 O
b0 X
b0 t
b0 Q
b0 m
b0 q
b0 y
b1100 L
b1100 }
b1100 ~
b1000 %
b1000 w
b1000 D"
b0 '
b0 u
b0 /"
b0 E"
b0 U
b0 Y
b0 `
1W
b1000 J
b1000 [
b1000 v
b1000 ,"
b10111 k
b0 S
b0 ^
b0 j
b10 <
b10 f
b10 1"
b0 (
b0 d
b0 C"
b0 *
b0 e
b0 B"
b10111 K
b10111 \
b10111 g
b1000 P
b1000 Z
b1000 n
b10 G
b10 !"
b100010111 N
b100010111 h
b100010111 l
b100010111 G"
b0 )
b0 p
b0 {
b0 F"
b1000 I
b1000 o
b1000 |
b1000 ""
b1000 H"
b100100011000000000000 0
b100100011000000000000 <"
1"
b10 #
#100000
0"
#120000
b1000 Q
b1000 m
b1000 q
b1000 y
b10100 L
b10100 }
b10100 ~
b100 O
b100 X
b100 t
bx '
bx u
bx /"
bx E"
b10 H
b10 a
b10 z
b11 V
b11 _
b11 s
b10000 %
b10000 w
b10000 D"
b1101111 k
b1000 (
b1000 d
b1000 C"
b1101111 K
b1101111 \
b1101111 g
b10000 J
b10000 [
b10000 v
b10000 ,"
b11 G
b11 !"
b100000000000000101101111 N
b100000000000000101101111 h
b100000000000000101101111 l
b100000000000000101101111 G"
b1100 P
b1100 Z
b1100 n
b1100 I
b1100 o
b1100 |
b1100 ""
b1100 H"
b1000 2
b1000 :"
1"
b11 #
#140000
0"
#160000
b1000 Q
b1000 m
b1000 q
b1000 y
b11000 L
b11000 }
b11000 ~
b1000 O
b1000 X
b1000 t
b10000 )
b10000 p
b10000 {
b10000 F"
b0 H
b0 a
b0 z
b1 V
b1 _
b1 s
0W
b11000 %
b11000 w
b11000 D"
b10011 k
b10 *
b10 e
b10 B"
b10011 K
b10011 \
b10011 g
b11000 J
b11000 [
b11000 v
b11000 ,"
b101 G
b101 !"
b100000010000000100010011 N
b100000010000000100010011 h
b100000010000000100010011 l
b100000010000000100010011 G"
b10000 P
b10000 Z
b10000 n
b10100 I
b10100 o
b10100 |
b10100 ""
b10100 H"
b10000 2
b10000 :"
1"
b100 #
#180000
0"
#200000
b11100 L
b11100 }
b11100 ~
b100000 %
b100000 w
b100000 D"
b100000 J
b100000 [
b100000 v
b100000 ,"
b11000 P
b11000 Z
b11000 n
b110 G
b110 !"
b11000 )
b11000 p
b11000 {
b11000 F"
b11000 I
b11000 o
b11000 |
b11000 ""
b11000 H"
b11000 2
b11000 :"
1"
b101 #
#220000
0"
#240000
b101000 L
b101000 }
b101000 ~
b101000 %
b101000 w
b101000 D"
b11 H
b11 a
b11 z
b1010 U
b1010 Y
b1010 `
b101000 J
b101000 [
b101000 v
b101000 ,"
b1100111 k
b1100111 K
b1100111 \
b1100111 g
b100000 P
b100000 Z
b100000 n
b111 G
b111 !"
b100000010000000101100111 N
b100000010000000101100111 h
b100000010000000101100111 l
b100000010000000101100111 G"
b100000 )
b100000 p
b100000 {
b100000 F"
b11100 I
b11100 o
b11100 |
b11100 ""
b11100 H"
b100000 2
b100000 :"
1"
b110 #
#260000
0"
#280000
b1000 Q
b1000 m
b1000 q
b1000 y
b110000 L
b110000 }
b110000 ~
1T
b100100011000000000000 O
b100100011000000000000 X
b100100011000000000000 t
b0 %
b0 w
b0 D"
b100100011000000000000 '
b100100011000000000000 u
b100100011000000000000 /"
b100100011000000000000 E"
b1011 U
b1011 Y
b1011 `
b1 H
b1 a
b1 z
b0 V
b0 _
b0 s
0$
b0 J
b0 [
b0 v
b0 ,"
b1100011 k
b1000 <
b1000 f
b1000 1"
b100 (
b100 d
b100 C"
b100 *
b100 e
b100 B"
b1100011 K
b1100011 \
b1100011 g
b100100011000000000000 P
b100100011000000000000 Z
b100100011000000000000 n
b1010 G
b1010 !"
b10000100000010001100011 N
b10000100000010001100011 h
b10000100000010001100011 l
b10000100000010001100011 G"
b100100011000000000000 )
b100100011000000000000 p
b100100011000000000000 {
b100100011000000000000 F"
b101000 I
b101000 o
b101000 |
b101000 ""
b101000 H"
b101000 2
b101000 :"
1"
b111 #
#300000
0"
#320000
b10 Q
b10 m
b10 q
b10 y
b110100 L
b110100 }
b110100 ~
b10 %
b10 w
b10 D"
b0 P
b0 Z
b0 n
b10 J
b10 [
b10 v
b10 ,"
0T
b10 O
b10 X
b10 t
b101000 '
b101000 u
b101000 /"
b101000 E"
b0 )
b0 p
b0 {
b0 F"
b0 U
b0 Y
b0 `
b0 H
b0 a
b0 z
b1 V
b1 _
b1 s
1$
b10011 k
b10 <
b10 f
b10 1"
b10 (
b10 d
b10 C"
b0 *
b0 e
b0 B"
b10011 K
b10011 \
b10011 g
b1100 G
b1100 !"
b1000000000000100010011 N
b1000000000000100010011 h
b1000000000000100010011 l
b1000000000000100010011 G"
b110000 I
b110000 o
b110000 |
b110000 ""
b110000 H"
1"
b1000 #
#340000
0"
#360000
b111000 L
b111000 }
b111000 ~
b100 J
b100 [
b100 v
b100 ,"
b10 P
b10 Z
b10 n
b101011001111000 =
b101011001111000 x
b101011001111000 0"
b101011001111000 %
b101011001111000 w
b101011001111000 D"
b10 )
b10 p
b10 {
b10 F"
b10 ;
b10 b
b10 -"
1M
b11 k
b101 S
b101 ^
b101 j
b100 <
b100 f
b100 1"
b10 *
b10 e
b10 B"
b11 K
b11 \
b11 g
b1101 G
b1101 !"
b1000010101001000000011 N
b1000010101001000000011 h
b1000010101001000000011 l
b1000010101001000000011 G"
b10 '
b10 u
b10 /"
b10 E"
b110100 I
b110100 o
b110100 |
b110100 ""
b110100 H"
b10 2
b10 :"
1"
b1001 #
#380000
0"
#400000
b111100 L
b111100 }
b111100 ~
b0 =
b0 x
b0 0"
b100 %
b100 w
b100 D"
b1 &
b1 c
b1 ."
b0 ;
b0 b
b0 -"
0M
0$
b100011 k
b10 S
b10 ^
b10 j
b10 <
b10 f
b10 1"
b100011 K
b100011 \
b100011 g
b1110 G
b1110 !"
b1000010010000100100011 N
b1000010010000100100011 h
b1000010010000100100011 l
b1000010010000100100011 G"
b111000 I
b111000 o
b111000 |
b111000 ""
b111000 H"
b101011001111000 0
b101011001111000 <"
1"
b1010 #
#420000
0"
#440000
b1000 O
b1000 X
b1000 t
b1000 Q
b1000 m
b1000 q
b1000 y
b1000000 L
b1000000 }
b1000000 ~
b1000 %
b1000 w
b1000 D"
b1000 J
b1000 [
b1000 v
b1000 ,"
b0 P
b0 Z
b0 n
bx '
bx u
bx /"
bx E"
b0 )
b0 p
b0 {
b0 F"
b0 &
b0 c
b0 ."
1$
b10011 k
b0 S
b0 ^
b0 j
b1000 (
b1000 d
b1000 C"
b0 *
b0 e
b0 B"
b10011 K
b10011 \
b10011 g
b1111 G
b1111 !"
b100000000000000100010011 N
b100000000000000100010011 h
b100000000000000100010011 l
b100000000000000100010011 G"
b111100 I
b111100 o
b111100 |
b111100 ""
b111100 H"
b10 B
b10 '"
1"
b1011 #
#460000
0"
#480000
b11111111111111111111100000001001 O
b11111111111111111111100000001001 X
b11111111111111111111100000001001 t
b11111111111111111111100000001001 Q
b11111111111111111111100000001001 m
b11111111111111111111100000001001 q
b11111111111111111111100000001001 y
b1000100 L
b1000100 }
b1000100 ~
b0 %
b0 w
b0 D"
b0 J
b0 [
b0 v
b0 ,"
b1000 P
b1000 Z
b1000 n
b110 U
b110 Y
b110 `
b1000 )
b1000 p
b1000 {
b1000 F"
b1000000 R
b1000000 ]
b1000000 i
b10 S
b10 ^
b10 j
b100 <
b100 f
b100 1"
b1001 (
b1001 d
b1001 C"
b10 *
b10 e
b10 B"
b10000 G
b10000 !"
b10000000100100010010001000010011 N
b10000000100100010010001000010011 h
b10000000100100010010001000010011 l
b10000000100100010010001000010011 G"
b1000000 I
b1000000 o
b1000000 |
b1000000 ""
b1000000 H"
b1000 2
b1000 :"
1"
b1100 #
#500000
0"
#520000
b11111111111111111111100000000000 O
b11111111111111111111100000000000 X
b11111111111111111111100000000000 t
b11111111111111111111100000000000 Q
b11111111111111111111100000000000 m
b11111111111111111111100000000000 q
b11111111111111111111100000000000 y
b1001000 L
b1001000 }
b1001000 ~
b1 %
b1 w
b1 D"
b1 J
b1 [
b1 v
b1 ,"
b111 U
b111 Y
b111 `
b0 '
b0 u
b0 /"
b0 E"
b11 S
b11 ^
b11 j
b0 (
b0 d
b0 C"
b10001 G
b10001 !"
b10000000000000010011001000010011 N
b10000000000000010011001000010011 h
b10000000000000010011001000010011 l
b10000000000000010011001000010011 G"
b1000100 I
b1000100 o
b1000100 |
b1000100 ""
b1000100 H"
b0 0
b0 <"
1"
b1101 #
#540000
0"
#560000
b11111111111111111111100011111111 O
b11111111111111111111100011111111 X
b11111111111111111111100011111111 t
b11111111111111111111100011111111 Q
b11111111111111111111100011111111 m
b11111111111111111111100011111111 q
b11111111111111111111100011111111 y
b1001100 L
b1001100 }
b1001100 ~
b11111111111111111111100011110111 %
b11111111111111111111100011110111 w
b11111111111111111111100011110111 D"
b11111111111111111111100011110111 J
b11111111111111111111100011110111 [
b11111111111111111111100011110111 v
b11111111111111111111100011110111 ,"
b100 U
b100 Y
b100 `
bx '
bx u
bx /"
bx E"
b1000111 R
b1000111 ]
b1000111 i
b100 S
b100 ^
b100 j
b11111 (
b11111 d
b11111 C"
b10010 G
b10010 !"
b10001111111100010100001000010011 N
b10001111111100010100001000010011 h
b10001111111100010100001000010011 l
b10001111111100010100001000010011 G"
b1001000 I
b1001000 o
b1001000 |
b1001000 ""
b1001000 H"
b1 0
b1 <"
1"
b1110 #
#580000
0"
#600000
b1010000 L
b1010000 }
b1010000 ~
b11111111111111111111100011111111 %
b11111111111111111111100011111111 w
b11111111111111111111100011111111 D"
b11111111111111111111100011111111 J
b11111111111111111111100011111111 [
b11111111111111111111100011111111 v
b11111111111111111111100011111111 ,"
b11 U
b11 Y
b11 `
b110 S
b110 ^
b110 j
b10011 G
b10011 !"
b10001111111100010110001000010011 N
b10001111111100010110001000010011 h
b10001111111100010110001000010011 l
b10001111111100010110001000010011 G"
b1001100 I
b1001100 o
b1001100 |
b1001100 ""
b1001100 H"
b11111111111111111111100011110111 0
b11111111111111111111100011110111 <"
1"
b1111 #
#620000
0"
#640000
b1010100 L
b1010100 }
b1010100 ~
b1000 %
b1000 w
b1000 D"
b1000 J
b1000 [
b1000 v
b1000 ,"
b10 U
b10 Y
b10 `
b111 S
b111 ^
b111 j
b10100 G
b10100 !"
b10001111111100010111001000010011 N
b10001111111100010111001000010011 h
b10001111111100010111001000010011 l
b10001111111100010111001000010011 G"
b1010000 I
b1010000 o
b1010000 |
b1010000 ""
b1010000 H"
b11111111111111111111100011111111 0
b11111111111111111111100011111111 <"
1"
b10000 #
#660000
0"
#680000
b100 O
b100 X
b100 t
b100 Q
b100 m
b100 q
b100 y
b1011000 L
b1011000 }
b1011000 ~
b10000000 %
b10000000 w
b10000000 D"
b10000000 J
b10000000 [
b10000000 v
b10000000 ,"
b101 U
b101 Y
b101 `
b1000 '
b1000 u
b1000 /"
b1000 E"
b0 R
b0 ]
b0 i
b1 S
b1 ^
b1 j
b100 (
b100 d
b100 C"
b10101 G
b10101 !"
b10000010001001000010011 N
b10000010001001000010011 h
b10000010001001000010011 l
b10000010001001000010011 G"
b1010100 I
b1010100 o
b1010100 |
b1010100 ""
b1010100 H"
b1000 0
b1000 <"
1"
b10001 #
#700000
0"
#720000
b11 O
b11 X
b11 t
b11 Q
b11 m
b11 q
b11 y
b1011100 L
b1011100 }
b1011100 ~
b1 %
b1 w
b1 D"
b1 J
b1 [
b1 v
b1 ,"
b1000 U
b1000 Y
b1000 `
b101 S
b101 ^
b101 j
b11 (
b11 d
b11 C"
b10110 G
b10110 !"
b1100010101001000010011 N
b1100010101001000010011 h
b1100010101001000010011 l
b1100010101001000010011 G"
bx '
bx u
bx /"
bx E"
b1011000 I
b1011000 o
b1011000 |
b1011000 ""
b1011000 H"
b10000000 0
b10000000 <"
1"
b10010 #
#740000
0"
#760000
b100 %
b100 w
b100 D"
b10000000001 O
b10000000001 X
b10000000001 t
b10000000001 Q
b10000000001 m
b10000000001 q
b10000000001 y
b1100000 L
b1100000 }
b1100000 ~
b100 J
b100 [
b100 v
b100 ,"
b1001 U
b1001 Y
b1001 `
b100000 R
b100000 ]
b100000 i
b1 (
b1 d
b1 C"
b10111 G
b10111 !"
b1000000000100010101001000010011 N
b1000000000100010101001000010011 h
b1000000000100010101001000010011 l
b1000000000100010101001000010011 G"
b1011100 I
b1011100 o
b1011100 |
b1011100 ""
b1011100 H"
b1 0
b1 <"
1"
b10011 #
#780000
0"
#800000
b10 Q
b10 m
b10 q
b10 y
b1100100 L
b1100100 }
b1100100 ~
b1100 %
b1100 w
b1100 D"
b100 P
b100 Z
b100 n
b1100 J
b1100 [
b1100 v
b1100 ,"
b1000 O
b1000 X
b1000 t
b1000 '
b1000 u
b1000 /"
b1000 E"
b100 )
b100 p
b100 {
b100 F"
b0 U
b0 Y
b0 `
b0 V
b0 _
b0 s
b110011 k
b0 R
b0 ]
b0 i
b0 S
b0 ^
b0 j
b110 <
b110 f
b110 1"
b10 (
b10 d
b10 C"
b100 *
b100 e
b100 B"
b110011 K
b110011 \
b110011 g
b11000 G
b11000 !"
b1000100000001100110011 N
b1000100000001100110011 h
b1000100000001100110011 l
b1000100000001100110011 G"
b1100000 I
b1100000 o
b1100000 |
b1100000 ""
b1100000 H"
b100 0
b100 <"
1"
b10100 #
#820000
0"
#840000
b10000000100 Q
b10000000100 m
b10000000100 q
b10000000100 y
b1101000 L
b1101000 }
b1101000 ~
b100 %
b100 w
b100 D"
b100 J
b100 [
b100 v
b100 ,"
b100 O
b100 X
b100 t
b1000 P
b1000 Z
b1000 n
b1 U
b1 Y
b1 `
b100 '
b100 u
b100 /"
b100 E"
b1000 )
b1000 p
b1000 {
b1000 F"
b100000 R
b100000 ]
b100000 i
b100 (
b100 d
b100 C"
b10 *
b10 e
b10 B"
b11001 G
b11001 !"
b1000000010000010000001100110011 N
b1000000010000010000001100110011 h
b1000000010000010000001100110011 l
b1000000010000010000001100110011 G"
b1100100 I
b1100100 o
b1100100 |
b1100100 ""
b1100100 H"
b1100 .
b1100 >"
1"
b10101 #
#860000
0"
#880000
b100 Q
b100 m
b100 q
b100 y
b1101100 L
b1101100 }
b1101100 ~
b10000000 %
b10000000 w
b10000000 D"
b10000000 J
b10000000 [
b10000000 v
b10000000 ,"
b101 U
b101 Y
b101 `
b0 R
b0 ]
b0 i
b1 S
b1 ^
b1 j
b11010 G
b11010 !"
b10000010001001100110011 N
b10000010001001100110011 h
b10000010001001100110011 l
b10000010001001100110011 G"
b1101000 I
b1101000 o
b1101000 |
b1101000 ""
b1101000 H"
b100 .
b100 >"
1"
b10110 #
#900000
0"
#920000
b10 Q
b10 m
b10 q
b10 y
b1110000 L
b1110000 }
b1110000 ~
b1 %
b1 w
b1 D"
b1 J
b1 [
b1 v
b1 ,"
b1000 O
b1000 X
b1000 t
b100 P
b100 Z
b100 n
b110 U
b110 Y
b110 `
b1000 '
b1000 u
b1000 /"
b1000 E"
b100 )
b100 p
b100 {
b100 F"
b10 S
b10 ^
b10 j
b10 (
b10 d
b10 C"
b100 *
b100 e
b100 B"
b11011 G
b11011 !"
b1000100010001100110011 N
b1000100010001100110011 h
b1000100010001100110011 l
b1000100010001100110011 G"
b1101100 I
b1101100 o
b1101100 |
b1101100 ""
b1101100 H"
b10000000 .
b10000000 >"
1"
b10111 #
#940000
0"
#960000
b11111111111111111111100000000000 Q
b11111111111111111111100000000000 m
b11111111111111111111100000000000 q
b11111111111111111111100000000000 y
b1110100 L
b1110100 }
b1110100 ~
b11111111111111111111100000000000 %
b11111111111111111111100000000000 w
b11111111111111111111100000000000 D"
b0 P
b0 Z
b0 n
b11111111111111111111100000000000 J
b11111111111111111111100000000000 [
b11111111111111111111100000000000 v
b11111111111111111111100000000000 ,"
b11111111111111111111100000000000 O
b11111111111111111111100000000000 X
b11111111111111111111100000000000 t
b0 '
b0 u
b0 /"
b0 E"
b0 )
b0 p
b0 {
b0 F"
b0 U
b0 Y
b0 `
b1 V
b1 _
b1 s
b10011 k
b1000000 R
b1000000 ]
b1000000 i
b0 S
b0 ^
b0 j
b10 <
b10 f
b10 1"
b0 (
b0 d
b0 C"
b0 *
b0 e
b0 B"
b10011 K
b10011 \
b10011 g
b11100 G
b11100 !"
b10000000000000000000000100010011 N
b10000000000000000000000100010011 h
b10000000000000000000000100010011 l
b10000000000000000000000100010011 G"
b1110000 I
b1110000 o
b1110000 |
b1110000 ""
b1110000 H"
b1 .
b1 >"
1"
b11000 #
#980000
0"
#1000000
b10 Q
b10 m
b10 q
b10 y
b1111000 L
b1111000 }
b1111000 ~
b1 %
b1 w
b1 D"
b100 P
b100 Z
b100 n
b1 J
b1 [
b1 v
b1 ,"
b11111111111111111111100000000000 '
b11111111111111111111100000000000 u
b11111111111111111111100000000000 /"
b11111111111111111111100000000000 E"
b100 )
b100 p
b100 {
b100 F"
b111 U
b111 Y
b111 `
b0 V
b0 _
b0 s
b110011 k
b0 R
b0 ]
b0 i
b11 S
b11 ^
b11 j
b110 <
b110 f
b110 1"
b10 (
b10 d
b10 C"
b100 *
b100 e
b100 B"
b110011 K
b110011 \
b110011 g
b11101 G
b11101 !"
b1000100011001100110011 N
b1000100011001100110011 h
b1000100011001100110011 l
b1000100011001100110011 G"
b1110100 I
b1110100 o
b1110100 |
b1110100 ""
b1110100 H"
b11111111111111111111100000000000 2
b11111111111111111111100000000000 :"
1"
b11001 #
#1020000
0"
#1040000
b1111 Q
b1111 m
b1111 q
b1111 y
b1111100 L
b1111100 }
b1111100 ~
b1111 %
b1111 w
b1111 D"
b0 P
b0 Z
b0 n
b1111 J
b1111 [
b1111 v
b1111 ,"
b1111 O
b1111 X
b1111 t
bx '
bx u
bx /"
bx E"
b0 )
b0 p
b0 {
b0 F"
b0 U
b0 Y
b0 `
b1 V
b1 _
b1 s
b10011 k
b0 S
b0 ^
b0 j
b10 <
b10 f
b10 1"
b1111 (
b1111 d
b1111 C"
b0 *
b0 e
b0 B"
b10011 K
b10011 \
b10011 g
b11110 G
b11110 !"
b111100000000000100010011 N
b111100000000000100010011 h
b111100000000000100010011 l
b111100000000000100010011 G"
b1111000 I
b1111000 o
b1111000 |
b1111000 ""
b1111000 H"
1"
b11010 #
#1060000
0"
#1080000
b10 Q
b10 m
b10 q
b10 y
b10000000 L
b10000000 }
b10000000 ~
b1011 %
b1011 w
b1011 D"
b100 P
b100 Z
b100 n
b1011 J
b1011 [
b1011 v
b1011 ,"
b1111 '
b1111 u
b1111 /"
b1111 E"
b100 )
b100 p
b100 {
b100 F"
b100 U
b100 Y
b100 `
b0 V
b0 _
b0 s
b110011 k
b100 S
b100 ^
b100 j
b110 <
b110 f
b110 1"
b10 (
b10 d
b10 C"
b100 *
b100 e
b100 B"
b110011 K
b110011 \
b110011 g
b11111 G
b11111 !"
b1000100100001100110011 N
b1000100100001100110011 h
b1000100100001100110011 l
b1000100100001100110011 G"
b1111100 I
b1111100 o
b1111100 |
b1111100 ""
b1111100 H"
b1111 2
b1111 :"
1"
b11011 #
#1100000
0"
#1120000
b1 Q
b1 m
b1 q
b1 y
b10000100 L
b10000100 }
b10000100 ~
b1 %
b1 w
b1 D"
b0 P
b0 Z
b0 n
b1 J
b1 [
b1 v
b1 ,"
b1 O
b1 X
b1 t
bx '
bx u
bx /"
bx E"
b0 )
b0 p
b0 {
b0 F"
b0 U
b0 Y
b0 `
b1 V
b1 _
b1 s
b10011 k
b0 S
b0 ^
b0 j
b10 <
b10 f
b10 1"
b1 (
b1 d
b1 C"
b0 *
b0 e
b0 B"
b10011 K
b10011 \
b10011 g
b100000 G
b100000 !"
b100000000000100010011 N
b100000000000100010011 h
b100000000000100010011 l
b100000000000100010011 G"
b10000000 I
b10000000 o
b10000000 |
b10000000 ""
b10000000 H"
b1011 .
b1011 >"
1"
b11100 #
#1140000
0"
