five_stages_tb/vcd/cpu.vcd
$date
	Tue May 28 18:47:36 2024
$end
$version
	Icarus Verilog
$end
$timescale
	1ps
$end
$scope module tb_cpu $end
$var wire 1 ! rst $end
$var reg 1 " clk $end
$var integer 32 # i [31:0] $end
$scope module cpu_INSTANCE $end
$var wire 1 " clk $end
$var wire 32 $ me_rs2_data [31:0] $end
$var wire 32 % me_true_rs2_data [31:0] $end
$var wire 1 ! rst $end
$var wire 1 & wb_write_reg_enable $end
$var wire 1 ' wb_wb_aluOut_or_memOut $end
$var wire 32 ( wb_rd_write_data [31:0] $end
$var wire 5 ) wb_rd_addr [4:0] $end
$var wire 32 * wb_ram_out [31:0] $end
$var wire 32 + wb_alu_out [31:0] $end
$var wire 32 , reg_9 [31:0] $end
$var wire 32 - reg_8 [31:0] $end
$var wire 32 . reg_7 [31:0] $end
$var wire 32 / reg_6 [31:0] $end
$var wire 32 0 reg_5 [31:0] $end
$var wire 32 1 reg_4 [31:0] $end
$var wire 32 2 reg_3 [31:0] $end
$var wire 32 3 reg_2 [31:0] $end
$var wire 32 4 reg_15 [31:0] $end
$var wire 32 5 reg_14 [31:0] $end
$var wire 32 6 reg_13 [31:0] $end
$var wire 32 7 reg_12 [31:0] $end
$var wire 32 8 reg_11 [31:0] $end
$var wire 32 9 reg_10 [31:0] $end
$var wire 32 : reg_1 [31:0] $end
$var wire 32 ; reg_0 [31:0] $end
$var wire 32 < ram_8 [31:0] $end
$var wire 32 = ram_7 [31:0] $end
$var wire 32 > ram_6 [31:0] $end
$var wire 32 ? ram_5 [31:0] $end
$var wire 32 @ ram_4 [31:0] $end
$var wire 32 A ram_3 [31:0] $end
$var wire 32 B ram_2 [31:0] $end
$var wire 32 C ram_1 [31:0] $end
$var wire 32 D ram_0 [31:0] $end
$var wire 32 E pc_rom_addr [31:0] $end
$var wire 1 F pause $end
$var wire 1 G me_write_reg_enable $end
$var wire 2 H me_write_ram_flag [1:0] $end
$var wire 1 I me_wb_aluOut_or_memOut $end
$var wire 5 J me_rs2_addr [4:0] $end
$var wire 32 K me_rs1_data_add_imm_32_for_pc [31:0] $end
$var wire 3 L me_read_ram_flag [2:0] $end
$var wire 5 M me_rd_addr [4:0] $end
$var wire 32 N me_ram_out [31:0] $end
$var wire 2 O me_pc_condition [1:0] $end
$var wire 32 P me_pc_add_imm_32 [31:0] $end
$var wire 1 Q me_branch_enable $end
$var wire 32 R me_alu_out [31:0] $end
$var wire 32 S if_pc_add_4 [31:0] $end
$var wire 32 T if_pc [31:0] $end
$var wire 32 U if_next_pc [31:0] $end
$var wire 32 V if_instr [31:0] $end
$var wire 1 W id_write_reg_enable $end
$var wire 2 X id_write_ram_flag [1:0] $end
$var wire 1 Y id_wb_aluOut_or_memOut $end
$var wire 32 Z id_rs2_data [31:0] $end
$var wire 5 [ id_rs2_addr [4:0] $end
$var wire 32 \ id_rs1_data [31:0] $end
$var wire 5 ] id_rs1_addr [4:0] $end
$var wire 3 ^ id_read_ram_flag [2:0] $end
$var wire 5 _ id_rd_addr [4:0] $end
$var wire 2 ` id_pc_condition [1:0] $end
$var wire 32 a id_pc [31:0] $end
$var wire 7 b id_opcode [6:0] $end
$var wire 32 c id_instr [31:0] $end
$var wire 32 d id_imm_32 [31:0] $end
$var wire 7 e id_func7 [6:0] $end
$var wire 3 f id_func3 [2:0] $end
$var wire 5 g id_alu_opt [4:0] $end
$var wire 2 h id_alu_b_in_rs2Data_or_imm32_or_4 [1:0] $end
$var wire 1 i id_alu_a_in_rs1_or_pc $end
$var wire 1 j forwardC $end
$var wire 2 k forwardB [1:0] $end
$var wire 2 l forwardA [1:0] $end
$var wire 1 m flush $end
$var wire 1 n ex_write_reg_enable $end
$var wire 2 o ex_write_ram_flag [1:0] $end
$var wire 1 p ex_wb_aluOut_or_memOut $end
$var wire 32 q ex_true_rs2_data [31:0] $end
$var wire 32 r ex_true_rs1_data [31:0] $end
$var wire 32 s ex_rs2_data [31:0] $end
$var wire 5 t ex_rs2_addr [4:0] $end
$var wire 32 u ex_rs1_data_add_imm_32_for_pc [31:0] $end
$var wire 32 v ex_rs1_data [31:0] $end
$var wire 5 w ex_rs1_addr [4:0] $end
$var wire 3 x ex_read_ram_flag [2:0] $end
$var wire 5 y ex_rd_addr [4:0] $end
$var wire 2 z ex_pc_condition [1:0] $end
$var wire 32 { ex_pc_add_imm_32 [31:0] $end
$var wire 32 | ex_pc [31:0] $end
$var wire 32 } ex_inAluB [31:0] $end
$var wire 32 ~ ex_inAluA [31:0] $end
$var wire 32 !" ex_imm_32 [31:0] $end
$var wire 1 "" ex_branch_enable $end
$var wire 32 #" ex_alu_out [31:0] $end
$var wire 5 $" ex_alu_opt [4:0] $end
$var wire 2 %" ex_alu_b_in_rs2Data_or_imm32_or_4 [1:0] $end
$var wire 1 &" ex_alu_a_in_rs1_or_pc $end
$scope module ALU_INSTANCE $end
$var wire 32 '" b [31:0] $end
$var wire 5 (" alu_opt [4:0] $end
$var wire 32 )" a [31:0] $end
$var reg 32 *" alu_out [31:0] $end
$var reg 1 "" branch_enable $end
$upscope $end
$scope module CONTROLLER_INSTANCE $end
$var wire 7 +" opcode [6:0] $end
$var wire 7 ," func7 [6:0] $end
$var wire 3 -" func3 [2:0] $end
$var reg 1 i alu_a_in_rs1_or_pc $end
$var reg 2 ." alu_b_in_rs2Data_or_imm32_or_4 [1:0] $end
$var reg 5 /" alu_opt [4:0] $end
$var reg 2 0" pc_condition [1:0] $end
$var reg 3 1" read_ram_flag [2:0] $end
$var reg 1 Y wb_aluOut_or_memOut $end
$var reg 2 2" write_ram_flag [1:0] $end
$var reg 1 W write_reg_enable $end
$upscope $end
$scope module EX_ME $end
$var wire 1 " clk $end
$var wire 32 3" ex_alu_out [31:0] $end
$var wire 1 "" ex_branch_enable $end
$var wire 1 ! rst $end
$var wire 1 m flush $end
$var wire 1 n ex_write_reg_enable $end
$var wire 2 4" ex_write_ram_flag [1:0] $end
$var wire 1 p ex_wb_aluOut_or_memOut $end
$var wire 32 5" ex_rs2_data [31:0] $end
$var wire 5 6" ex_rs2_addr [4:0] $end
$var wire 32 7" ex_rs1_data_add_imm_32_for_pc [31:0] $end
$var wire 3 8" ex_read_ram_flag [2:0] $end
$var wire 5 9" ex_rd_addr [4:0] $end
$var wire 2 :" ex_pc_condition [1:0] $end
$var wire 32 ;" ex_pc_add_imm_32 [31:0] $end
$var reg 32 <" me_alu_out [31:0] $end
$var reg 1 Q me_branch_enable $end
$var reg 32 =" me_pc_add_imm_32 [31:0] $end
$var reg 2 >" me_pc_condition [1:0] $end
$var reg 5 ?" me_rd_addr [4:0] $end
$var reg 3 @" me_read_ram_flag [2:0] $end
$var reg 32 A" me_rs1_data_add_imm_32_for_pc [31:0] $end
$var reg 5 B" me_rs2_addr [4:0] $end
$var reg 32 C" me_rs2_data [31:0] $end
$var reg 1 I me_wb_aluOut_or_memOut $end
$var reg 2 D" me_write_ram_flag [1:0] $end
$var reg 1 G me_write_reg_enable $end
$upscope $end
$scope module FORWARD_UNIT $end
$var wire 5 E" me_rd_addr [4:0] $end
$var wire 5 F" me_rs2_addr [4:0] $end
$var wire 1 G me_write_reg_enable $end
$var wire 1 & wb_write_reg_enable $end
$var wire 5 G" wb_rd_addr [4:0] $end
$var wire 5 H" ex_rs2_addr [4:0] $end
$var wire 5 I" ex_rs1_addr [4:0] $end
$var reg 2 J" ex_forwardA [1:0] $end
$var reg 2 K" ex_forwardB [1:0] $end
$var reg 1 j me_forwardC $end
$upscope $end
$scope module HAZARD_DETECTION_UNIT $end
$var wire 5 L" id_rs2_addr [4:0] $end
$var wire 5 M" id_rs1_addr [4:0] $end
$var wire 3 N" ex_read_ram_flag [2:0] $end
$var wire 5 O" ex_rd_addr [4:0] $end
$var reg 1 F pause $end
$upscope $end
$scope module ID_EX_INSTANCE $end
$var wire 1 " clk $end
$var wire 1 i id_alu_a_in_rs1_or_pc $end
$var wire 2 P" id_alu_b_in_rs2Data_or_imm32_or_4 [1:0] $end
$var wire 5 Q" id_alu_opt [4:0] $end
$var wire 2 R" id_pc_condition [1:0] $end
$var wire 3 S" id_read_ram_flag [2:0] $end
$var wire 1 Y id_wb_aluOut_or_memOut $end
$var wire 2 T" id_write_ram_flag [1:0] $end
$var wire 1 W id_write_reg_enable $end
$var wire 1 F pause $end
$var wire 1 ! rst $end
$var wire 32 U" id_rs2_data [31:0] $end
$var wire 5 V" id_rs2_addr [4:0] $end
$var wire 32 W" id_rs1_data [31:0] $end
$var wire 5 X" id_rs1_addr [4:0] $end
$var wire 5 Y" id_rd_addr [4:0] $end
$var wire 32 Z" id_pc [31:0] $end
$var wire 32 [" id_imm_32 [31:0] $end
$var wire 1 m flush $end
$var reg 1 &" ex_alu_a_in_rs1_or_pc $end
$var reg 2 \" ex_alu_b_in_rs2Data_or_imm32_or_4 [1:0] $end
$var reg 5 ]" ex_alu_opt [4:0] $end
$var reg 32 ^" ex_imm_32 [31:0] $end
$var reg 32 _" ex_pc [31:0] $end
$var reg 2 `" ex_pc_condition [1:0] $end
$var reg 5 a" ex_rd_addr [4:0] $end
$var reg 3 b" ex_read_ram_flag [2:0] $end
$var reg 5 c" ex_rs1_addr [4:0] $end
$var reg 32 d" ex_rs1_data [31:0] $end
$var reg 5 e" ex_rs2_addr [4:0] $end
$var reg 32 f" ex_rs2_data [31:0] $end
$var reg 1 p ex_wb_aluOut_or_memOut $end
$var reg 2 g" ex_write_ram_flag [1:0] $end
$var reg 1 n ex_write_reg_enable $end
$upscope $end
$scope module ID_INSTANCE $end
$var wire 5 h" rs2_addr [4:0] $end
$var wire 5 i" rs1_addr [4:0] $end
$var wire 5 j" rd_addr [4:0] $end
$var wire 7 k" opcode [6:0] $end
$var wire 32 l" instr [31:0] $end
$var wire 7 m" func7 [6:0] $end
$var wire 3 n" func3 [2:0] $end
$upscope $end
$scope module IF_ID_INSTANCE $end
$var wire 1 " clk $end
$var wire 1 F pause $end
$var wire 1 ! rst $end
$var wire 32 o" if_pc [31:0] $end
$var wire 32 p" if_instr [31:0] $end
$var wire 1 m flush $end
$var reg 32 q" id_instr [31:0] $end
$var reg 32 r" id_pc [31:0] $end
$upscope $end
$scope module IMM_INSTANCE $end
$var wire 32 s" instr [31:0] $end
$var wire 7 t" opcode [6:0] $end
$var reg 32 u" imm_32 [31:0] $end
$upscope $end
$scope module ME_WB $end
$var wire 1 " clk $end
$var wire 32 v" me_alu_out [31:0] $end
$var wire 5 w" me_rd_addr [4:0] $end
$var wire 1 I me_wb_aluOut_or_memOut $end
$var wire 1 G me_write_reg_enable $end
$var wire 1 ! rst $end
$var wire 32 x" me_ram_out [31:0] $end
$var reg 32 y" wb_alu_out [31:0] $end
$var reg 32 z" wb_ram_out [31:0] $end
$var reg 5 {" wb_rd_addr [4:0] $end
$var reg 1 ' wb_wb_aluOut_or_memOut $end
$var reg 1 & wb_write_reg_enable $end
$upscope $end
$scope module MUX_ALU_A_INSTANCE $end
$var wire 32 |" b [31:0] $end
$var wire 1 &" signal $end
$var wire 32 }" out [31:0] $end
$var wire 32 ~" a [31:0] $end
$upscope $end
$scope module MUX_ALU_B_INSTANCE $end
$var wire 32 !# b [31:0] $end
$var wire 32 "# c [31:0] $end
$var wire 2 ## signal [1:0] $end
$var wire 32 $# out [31:0] $end
$var wire 32 %# a [31:0] $end
$upscope $end
$scope module MUX_FORWARD_A $end
$var wire 32 &# a [31:0] $end
$var wire 32 '# b [31:0] $end
$var wire 2 (# signal [1:0] $end
$var wire 32 )# out [31:0] $end
$var wire 32 *# c [31:0] $end
$upscope $end
$scope module MUX_FORWARD_B $end
$var wire 32 +# a [31:0] $end
$var wire 32 ,# b [31:0] $end
$var wire 2 -# signal [1:0] $end
$var wire 32 .# out [31:0] $end
$var wire 32 /# c [31:0] $end
$upscope $end
$scope module MUX_WB $end
$var wire 32 0# a [31:0] $end
$var wire 32 1# b [31:0] $end
$var wire 1 ' signal $end
$var wire 32 2# out [31:0] $end
$upscope $end
$scope module MUX_WB_INSTANCE $end
$var wire 32 3# a [31:0] $end
$var wire 32 4# b [31:0] $end
$var wire 32 5# out [31:0] $end
$var wire 1 j signal $end
$upscope $end
$scope module NEXT_PC_INSTANCE $end
$var wire 1 Q branch_enable $end
$var wire 1 6# clk $end
$var wire 32 7# pc [31:0] $end
$var wire 32 8# pc_add_imm_32 [31:0] $end
$var wire 2 9# pc_condition [1:0] $end
$var wire 32 :# rs1_data_add_imm_32_for_pc [31:0] $end
$var wire 1 ;# rst $end
$var wire 32 <# pc_add_four [31:0] $end
$var reg 1 m flush $end
$var reg 32 =# next_pc [31:0] $end
$upscope $end
$scope module PC_ADD_4_INSTANCE $end
$var wire 32 ># pc_add_four [31:0] $end
$var wire 32 ?# pc [31:0] $end
$upscope $end
$scope module PC_INSTANCE $end
$var wire 1 " clk $end
$var wire 32 @# next_pc [31:0] $end
$var wire 1 F pause $end
$var wire 1 ! rst $end
$var wire 32 A# pc_rom_addr [31:0] $end
$var reg 32 B# pc [31:0] $end
$upscope $end
$scope module PC_OPERAND_INSTANCE $end
$var wire 32 C# imm_32 [31:0] $end
$var wire 32 D# pc [31:0] $end
$var wire 32 E# rs1_data [31:0] $end
$var reg 32 F# pc_add_imm_32 [31:0] $end
$var reg 32 G# rs1_data_add_imm_32_for_pc [31:0] $end
$upscope $end
$scope module RAM_INSTANCE $end
$var wire 1 " clk $end
$var wire 32 H# ram_0 [31:0] $end
$var wire 32 I# ram_1 [31:0] $end
$var wire 32 J# ram_2 [31:0] $end
$var wire 32 K# ram_3 [31:0] $end
$var wire 32 L# ram_4 [31:0] $end
$var wire 32 M# ram_5 [31:0] $end
$var wire 32 N# ram_6 [31:0] $end
$var wire 32 O# ram_7 [31:0] $end
$var wire 32 P# ram_8 [31:0] $end
$var wire 32 Q# ram_addr [31:0] $end
$var wire 3 R# read_ram_flag [2:0] $end
$var wire 1 ! rst $end
$var wire 32 S# write_ram_data [31:0] $end
$var wire 2 T# write_ram_flag [1:0] $end
$var reg 32 U# ram_out [31:0] $end
$upscope $end
$scope module REG_FILE $end
$var wire 1 " clk $end
$var wire 5 V# rd_addr [4:0] $end
$var wire 32 W# rd_write_data [31:0] $end
$var wire 32 X# reg_0 [31:0] $end
$var wire 32 Y# reg_1 [31:0] $end
$var wire 32 Z# reg_10 [31:0] $end
$var wire 32 [# reg_11 [31:0] $end
$var wire 32 \# reg_12 [31:0] $end
$var wire 32 ]# reg_13 [31:0] $end
$var wire 32 ^# reg_14 [31:0] $end
$var wire 32 _# reg_15 [31:0] $end
$var wire 32 `# reg_2 [31:0] $end
$var wire 32 a# reg_3 [31:0] $end
$var wire 32 b# reg_4 [31:0] $end
$var wire 32 c# reg_5 [31:0] $end
$var wire 32 d# reg_6 [31:0] $end
$var wire 32 e# reg_7 [31:0] $end
$var wire 32 f# reg_8 [31:0] $end
$var wire 32 g# reg_9 [31:0] $end
$var wire 5 h# rs1_addr [4:0] $end
$var wire 5 i# rs2_addr [4:0] $end
$var wire 1 ! rst $end
$var wire 1 & write_reg_enable $end
$var wire 32 j# rs2_data [31:0] $end
$var wire 32 k# rs1_data [31:0] $end
$upscope $end
$scope module ROM_INSTANCE $end
$var wire 32 l# instr [31:0] $end
$var wire 32 m# pc [31:0] $end
$upscope $end
$upscope $end
$upscope $end
$enddefinitions $end
#0
$dumpvars
b0 m#
b0 l#
bx k#
bx j#
bx i#
bx h#
bx g#
bx f#
bx e#
bx d#
bx c#
bx b#
bx a#
bx `#
bx _#
bx ^#
bx ]#
bx \#
bx [#
bx Z#
bx Y#
bx X#
bx W#
bx V#
bx U#
bx T#
bx S#
bx R#
bx Q#
bx P#
bx O#
bx N#
bx M#
bx L#
bx K#
bx J#
bx I#
bx H#
bx G#
bx F#
bx E#
bx D#
bx C#
b0 B#
b0 A#
b100 @#
b0 ?#
b100 >#
b100 =#
b100 <#
z;#
bx :#
bx 9#
bx 8#
bz 7#
z6#
bx 5#
bx 4#
bz 3#
bx 2#
bx 1#
bx 0#
bx /#
bx .#
bx -#
bx ,#
bx +#
bx *#
bx )#
bx (#
bx '#
bx &#
bx %#
bx $#
bx ##
b100 "#
bx !#
bx ~"
bx }"
bx |"
bx {"
bx z"
bx y"
bx x"
bx w"
bx v"
bx u"
bx t"
bx s"
bx r"
bx q"
b0 p"
b0 o"
bx n"
bx m"
bx l"
bx k"
bx j"
bx i"
bx h"
bx g"
bx f"
bx e"
bx d"
bx c"
bx b"
bx a"
bx `"
bx _"
bx ^"
bx ]"
bx \"
bx ["
bx Z"
bx Y"
bx X"
bx W"
bx V"
bx U"
bx T"
bx S"
bx R"
bx Q"
bx P"
bx O"
bx N"
bx M"
bx L"
bx K"
bx J"
bx I"
bx H"
bx G"
bx F"
bx E"
bx D"
bx C"
bx B"
bx A"
bx @"
bx ?"
bx >"
bx ="
bx <"
bx ;"
bx :"
bx 9"
bx 8"
bx 7"
bx 6"
bx 5"
bx 4"
bx 3"
bx 2"
bx 1"
bx 0"
bx /"
bx ."
bx -"
bx ,"
bx +"
bx *"
bx )"
bx ("
bx '"
x&"
bx %"
bx $"
bx #"
x""
bx !"
bx ~
bx }
bx |
bx {
bx z
bx y
bx x
bx w
bx v
bx u
bx t
bx s
bx r
bx q
xp
bx o
xn
0m
bx l
bx k
xj
xi
bx h
bx g
bx f
bx e
bx d
bx c
bx b
bx a
bx `
bx _
bx ^
bx ]
bx \
bx [
bx Z
xY
bx X
xW
b0 V
b100 U
b0 T
b100 S
bx R
xQ
bx P
bx O
bx N
bx M
bx L
bx K
bx J
xI
bx H
xG
xF
b0 E
bx D
bx C
bx B
bx A
bx @
bx ?
bx >
bx =
bx <
bx ;
bx :
bx 9
bx 8
bx 7
bx 6
bx 5
bx 4
bx 3
bx 2
bx 1
bx 0
bx /
bx .
bx -
bx ,
bx +
bx *
bx )
bx (
x'
x&
bx %
bz $
b0 #
1"
z!
$end
#20000
0"
#40000
b1000 U
b1000 =#
b1000 @#
b0 d
b0 ["
b0 u"
b0 Z
b0 U"
b0 j#
b0 \
b0 W"
b0 k#
0F
b1 E
b1 A#
b11111110000000010000000100010011 V
b11111110000000010000000100010011 p"
b11111110000000010000000100010011 l#
b0 t"
b0 e
b0 ,"
b0 m"
b0 f
b0 -"
b0 n"
b0 _
b0 Y"
b0 j"
b0 V#
b0 [
b0 L"
b0 V"
b0 h"
b0 i#
b0 ]
b0 M"
b0 X"
b0 i"
b0 h#
b0 b
b0 +"
b0 k"
b1000 S
b1000 <#
b1000 >#
b100 T
b100 o"
b100 ?#
b100 B#
b100 m#
b0 c
b0 l"
b0 q"
b0 s"
b0 a
b0 Z"
b0 r"
1"
b1 #
#60000
0"
#80000
b0 u
b0 7"
b0 G#
b11111111111111111111111111100000 d
b11111111111111111111111111100000 ["
b11111111111111111111111111100000 u"
b0 {
b0 ;"
b0 F#
b1100 U
b1100 =#
b1100 @#
b0 #"
b0 *"
b0 3"
0""
b0 ~
b0 )"
b0 }"
b0x00 }
b0x00 '"
b0x00 $#
bx \
bx W"
bx k#
b0 g
b0 /"
b0 Q"
b0 `
b0 0"
b0 R"
b0 ^
b0 1"
b0 S"
b0 X
b0 2"
b0 T"
b1 h
b1 ."
b1 P"
0i
0Y
1W
b0 q
b0 5"
b0 %#
b0 .#
b0 r
b0 ~"
b0 )#
b0 E#
0j
b0 k
b0 K"
b0 -#
b0 l
b0 J"
b0 (#
b10011 t"
b1111111 e
b1111111 ,"
b1111111 m"
b10 _
b10 Y"
b10 j"
b10 V#
b10 ]
b10 M"
b10 X"
b10 i"
b10 h#
b10011 b
b10011 +"
b10011 k"
b10 E
b10 A#
b100000010010111000100011 V
b100000010010111000100011 p"
b100000010010111000100011 l#
b0 s
b0 f"
b0 +#
b0 v
b0 d"
b0 &#
b0 !"
b0 ^"
b0 !#
b0 C#
b0 t
b0 6"
b0 H"
b0 e"
b0 w
b0 I"
b0 c"
b0 y
b0 9"
b0 O"
b0 a"
b0 |
b0 _"
b0 |"
b0 D#
b11111110000000010000000100010011 c
b11111110000000010000000100010011 l"
b11111110000000010000000100010011 q"
b11111110000000010000000100010011 s"
b100 a
b100 Z"
b100 r"
b1100 S
b1100 <#
b1100 >#
b1000 T
b1000 o"
b1000 ?#
b1000 B#
b1000 m#
1"
b10 #
#100000
0"
#120000
b11100 d
b11100 ["
b11100 u"
bx u
bx 7"
bx G#
b11111111111111111111111111100100 {
b11111111111111111111111111100100 ;"
b11111111111111111111111111100100 F#
b10000 U
b10000 =#
b10000 @#
bx Z
bx U"
bx j#
b1 X
b1 2"
b1 T"
0W
bx ~
bx )"
bx }"
b11 E
b11 A#
b10000000010000010000010011 V
b10000000010000010000010011 p"
b10000000010000010000010011 l#
b100011 t"
b0 e
b0 ,"
b0 m"
b10 f
b10 -"
b10 n"
b11100 _
b11100 Y"
b11100 j"
b11100 V#
b1000 [
b1000 L"
b1000 V"
b1000 h"
b1000 i#
b100011 b
b100011 +"
b100011 k"
bx r
bx ~"
bx )#
bx E#
b11111111111111111111111111100000 }
b11111111111111111111111111100000 '"
b11111111111111111111111111100000 $#
bx #"
bx *"
bx 3"
b0 N
b0 x"
b0 U#
b10000 S
b10000 <#
b10000 >#
b1100 T
b1100 o"
b1100 ?#
b1100 B#
b1100 m#
b100000010010111000100011 c
b100000010010111000100011 l"
b100000010010111000100011 q"
b100000010010111000100011 s"
b1000 a
b1000 Z"
b1000 r"
bx v
bx d"
bx &#
b11111111111111111111111111100000 !"
b11111111111111111111111111100000 ^"
b11111111111111111111111111100000 !#
b11111111111111111111111111100000 C#
b10 w
b10 I"
b10 c"
b10 y
b10 9"
b10 O"
b10 a"
b100 |
b100 _"
b100 |"
b100 D#
b0 z
b0 :"
b0 `"
b0 x
b0 8"
b0 N"
b0 b"
0p
b0 o
b0 4"
b0 g"
1n
b1 %"
b1 \"
b1 ##
0&"
b0 $"
b0 ("
b0 ]"
b0 J
b0 B"
b0 F"
b0 M
b0 ?"
b0 E"
b0 w"
b0 %
b0 5#
b0 S#
b0 C"
b0 K
b0 A"
b0 :#
b0 P
b0 ="
b0 8#
b0 R
b0 <"
b0 v"
b0 '#
b0 ,#
b0 Q#
0Q
1"
b11 #
#140000
0"
#160000
b100100 {
b100100 ;"
b100100 F#
b100000 d
b100000 ["
b100000 u"
b10100 U
b10100 =#
b10100 @#
bx #"
bx *"
bx 3"
b11100 }
b11100 '"
b11100 $#
b0 Z
b0 U"
b0 j#
b0 X
b0 2"
b0 T"
1W
b0 (
b0 *#
b0 /#
b0 2#
b0 4#
b0 W#
bx q
bx 5"
bx %#
bx .#
b10011 t"
b1 e
b1 ,"
b1 m"
b0 f
b0 -"
b0 n"
b1000 _
b1000 Y"
b1000 j"
b1000 V#
b0 [
b0 L"
b0 V"
b0 h"
b0 i#
b10011 b
b10011 +"
b10011 k"
b100 E
b100 A#
b11111110101001000010011000100011 V
b11111110101001000010011000100011 p"
b11111110101001000010011000100011 l#
b0 )
b0 G"
b0 {"
b0 +
b0 y"
b0 0#
b0 *
b0 z"
b0 1#
b10 M
b10 ?"
b10 E"
b10 w"
bx K
bx A"
bx :#
b11111111111111111111111111100100 P
b11111111111111111111111111100100 ="
b11111111111111111111111111100100 8#
bx R
bx <"
bx v"
bx '#
bx ,#
bx Q#
b0 O
b0 >"
b0 9#
b0 L
b0 @"
b0 R#
b0 H
b0 D"
b0 T#
0I
0G
bx s
bx f"
bx +#
b11100 !"
b11100 ^"
b11100 !#
b11100 C#
b1000 t
b1000 6"
b1000 H"
b1000 e"
b11100 y
b11100 9"
b11100 O"
b11100 a"
b1000 |
b1000 _"
b1000 |"
b1000 D#
b1 o
b1 4"
b1 g"
0n
b10000000010000010000010011 c
b10000000010000010000010011 l"
b10000000010000010000010011 q"
b10000000010000010000010011 s"
b1100 a
b1100 Z"
b1100 r"
b10100 S
b10100 <#
b10100 >#
b10000 T
b10000 o"
b10000 ?#
b10000 B#
b10000 m#
1"
b100 #
#180000
0"
#200000
b11111111111111111111111111101100 d
b11111111111111111111111111101100 ["
b11111111111111111111111111101100 u"
b101100 {
b101100 ;"
b101100 F#
b11000 U
b11000 =#
b11000 @#
bx #"
bx *"
bx 3"
bx Z
bx U"
bx j#
b1 X
b1 2"
b1 T"
0W
b100000 }
b100000 '"
b100000 $#
b101 E
b101 A#
b11111110110001000010011110000011 V
b11111110110001000010011110000011 p"
b11111110110001000010011110000011 l#
b100011 t"
b1111111 e
b1111111 ,"
b1111111 m"
b10 f
b10 -"
b10 n"
b1100 _
b1100 Y"
b1100 j"
b1100 V#
b1010 [
b1010 L"
b1010 V"
b1010 h"
b1010 i#
b1000 ]
b1000 M"
b1000 X"
b1000 i"
b1000 h#
b100011 b
b100011 +"
b100011 k"
b0 q
b0 5"
b0 %#
b0 .#
bx (
bx *#
bx /#
bx 2#
bx 4#
bx W#
b11000 S
b11000 <#
b11000 >#
b10100 T
b10100 o"
b10100 ?#
b10100 B#
b10100 m#
b11111110101001000010011000100011 c
b11111110101001000010011000100011 l"
b11111110101001000010011000100011 q"
b11111110101001000010011000100011 s"
b10000 a
b10000 Z"
b10000 r"
b0 s
b0 f"
b0 +#
b100000 !"
b100000 ^"
b100000 !#
b100000 C#
b0 t
b0 6"
b0 H"
b0 e"
b1000 y
b1000 9"
b1000 O"
b1000 a"
b1100 |
b1100 _"
b1100 |"
b1100 D#
b0 o
b0 4"
b0 g"
1n
b1000 J
b1000 B"
b1000 F"
b11100 M
b11100 ?"
b11100 E"
b11100 w"
bx %
bx 5#
bx S#
bx C"
b100100 P
b100100 ="
b100100 8#
b1 H
b1 D"
b1 T#
1G
b10 )
b10 G"
b10 {"
bx +
bx y"
bx 0#
0&
0'
1"
b101 #
#220000
0"
#240000
b11111111111111111111111111111100 {
b11111111111111111111111111111100 ;"
b11111111111111111111111111111100 F#
b11111111111111111111111111101100 d
b11111111111111111111111111101100 ["
b11111111111111111111111111101100 u"
b11100 U
b11100 =#
b11100 @#
bx #"
bx *"
bx 3"
b11111111111111111111111111101100 }
b11111111111111111111111111101100 '"
b11111111111111111111111111101100 $#
b1 ^
b1 1"
b1 S"
b0 X
b0 2"
b0 T"
1Y
1W
bx q
bx 5"
bx %#
bx .#
b11 t"
b1111 _
b1111 Y"
b1111 j"
b1111 V#
b1100 [
b1100 L"
b1100 V"
b1100 h"
b1100 i#
b11 b
b11 +"
b11 k"
b110 E
b110 A#
b1111010011110000011 V
b1111010011110000011 p"
b1111010011110000011 l#
b11100 )
b11100 G"
b11100 {"
1&
b0 J
b0 B"
b0 F"
b1000 M
b1000 ?"
b1000 E"
b1000 w"
b0 %
b0 5#
b0 S#
b0 C"
b101100 P
b101100 ="
b101100 8#
b0 H
b0 D"
b0 T#
0G
bx s
bx f"
bx +#
b11111111111111111111111111101100 !"
b11111111111111111111111111101100 ^"
b11111111111111111111111111101100 !#
b11111111111111111111111111101100 C#
b1010 t
b1010 6"
b1010 H"
b1010 e"
b1000 w
b1000 I"
b1000 c"
b1100 y
b1100 9"
b1100 O"
b1100 a"
b10000 |
b10000 _"
b10000 |"
b10000 D#
b1 o
b1 4"
b1 g"
0n
b11111110110001000010011110000011 c
b11111110110001000010011110000011 l"
b11111110110001000010011110000011 q"
b11111110110001000010011110000011 s"
b10100 a
b10100 Z"
b10100 r"
b11100 S
b11100 <#
b11100 >#
b11000 T
b11000 o"
b11000 ?#
b11000 B#
b11000 m#
1"
b110 #
#260000
0"
#280000
b0 d
b0 ["
b0 u"
b0 {
b0 ;"
b0 F#
b100000 U
b100000 =#
b100000 @#
b0 Z
b0 U"
b0 j#
1F
b111 E
b111 A#
b101001111000011100010011 V
b101001111000011100010011 p"
b101001111000011100010011 l#
b0 e
b0 ,"
b0 m"
b0 [
b0 L"
b0 V"
b0 h"
b0 i#
b1111 ]
b1111 M"
b1111 X"
b1111 i"
b1111 h#
b1 k
b1 K"
b1 -#
b100000 S
b100000 <#
b100000 >#
b11100 T
b11100 o"
b11100 ?#
b11100 B#
b11100 m#
b1111010011110000011 c
b1111010011110000011 l"
b1111010011110000011 q"
b1111010011110000011 s"
b11000 a
b11000 Z"
b11000 r"
b1100 t
b1100 6"
b1100 H"
b1100 e"
b1111 y
b1111 9"
b1111 O"
b1111 a"
b10100 |
b10100 _"
b10100 |"
b10100 D#
b1 x
b1 8"
b1 N"
b1 b"
1p
b0 o
b0 4"
b0 g"
1n
b1010 J
b1010 B"
b1010 F"
b1100 M
b1100 ?"
b1100 E"
b1100 w"
bx %
bx 5#
bx S#
bx C"
b11111111111111111111111111111100 P
b11111111111111111111111111111100 ="
b11111111111111111111111111111100 8#
b1 H
b1 D"
b1 T#
1G
b1000 )
b1000 G"
b1000 {"
0&
1"
b111 #
#300000
0"
