03_five_stages_cache/five_stages_tb/vcd/cpu.vcd
$date
	Fri May 31 01:41:50 2024
$end
$version
	Icarus Verilog
$end
$timescale
	1ps
$end
$scope module tb_cpu $end
$var wire 1 ! rst $end
$var reg 1 " clk $end
$var integer 32 # i [31:0] $end
$scope module cpu_INSTANCE $end
$var wire 1 " clk $end
$var wire 32 $ me_rs2_data [31:0] $end
$var wire 32 % me_true_rs2_data [31:0] $end
$var wire 1 ! rst $end
$var wire 1 & wb_write_reg_enable $end
$var wire 1 ' wb_wb_aluOut_or_memOut $end
$var wire 32 ( wb_rd_write_data [31:0] $end
$var wire 5 ) wb_rd_addr [4:0] $end
$var wire 32 * wb_ram_out [31:0] $end
$var wire 32 + wb_alu_out [31:0] $end
$var wire 32 , reg_9 [31:0] $end
$var wire 32 - reg_8 [31:0] $end
$var wire 32 . reg_7 [31:0] $end
$var wire 32 / reg_6 [31:0] $end
$var wire 32 0 reg_5 [31:0] $end
$var wire 32 1 reg_4 [31:0] $end
$var wire 32 2 reg_3 [31:0] $end
$var wire 32 3 reg_2 [31:0] $end
$var wire 32 4 reg_15 [31:0] $end
$var wire 32 5 reg_14 [31:0] $end
$var wire 32 6 reg_13 [31:0] $end
$var wire 32 7 reg_12 [31:0] $end
$var wire 32 8 reg_11 [31:0] $end
$var wire 32 9 reg_10 [31:0] $end
$var wire 32 : reg_1 [31:0] $end
$var wire 32 ; reg_0 [31:0] $end
$var wire 32 < ram_8 [31:0] $end
$var wire 32 = ram_7 [31:0] $end
$var wire 32 > ram_6 [31:0] $end
$var wire 32 ? ram_5 [31:0] $end
$var wire 32 @ ram_4 [31:0] $end
$var wire 32 A ram_3 [31:0] $end
$var wire 32 B ram_2 [31:0] $end
$var wire 32 C ram_1 [31:0] $end
$var wire 32 D ram_0 [31:0] $end
$var wire 32 E pc_rom_addr [31:0] $end
$var wire 1 F pc_from_rom_ready $end
$var wire 1 G pause $end
$var wire 1 H me_write_reg_enable $end
$var wire 2 I me_write_ram_flag [1:0] $end
$var wire 1 J me_wb_aluOut_or_memOut $end
$var wire 5 K me_rs2_addr [4:0] $end
$var wire 32 L me_rs1_data_add_imm_32_for_pc [31:0] $end
$var wire 5 M me_rd_addr [4:0] $end
$var wire 32 N me_ram_out [31:0] $end
$var wire 2 O me_pc_condition [1:0] $end
$var wire 32 P me_pc_add_imm_32 [31:0] $end
$var wire 3 Q me_load_ram_flag [2:0] $end
$var wire 1 R me_branch_enable $end
$var wire 32 S me_alu_out [31:0] $end
$var wire 32 T if_pc_add_4 [31:0] $end
$var wire 32 U if_pc [31:0] $end
$var wire 32 V if_next_pc [31:0] $end
$var wire 32 W if_instr [31:0] $end
$var wire 1 X id_write_reg_enable $end
$var wire 2 Y id_write_ram_flag [1:0] $end
$var wire 1 Z id_wb_aluOut_or_memOut $end
$var wire 32 [ id_rs2_data [31:0] $end
$var wire 5 \ id_rs2_addr [4:0] $end
$var wire 32 ] id_rs1_data [31:0] $end
$var wire 5 ^ id_rs1_addr [4:0] $end
$var wire 5 _ id_rd_addr [4:0] $end
$var wire 2 ` id_pc_condition [1:0] $end
$var wire 32 a id_pc [31:0] $end
$var wire 7 b id_opcode [6:0] $end
$var wire 3 c id_load_ram_flag [2:0] $end
$var wire 32 d id_instr [31:0] $end
$var wire 32 e id_imm_32 [31:0] $end
$var wire 7 f id_func7 [6:0] $end
$var wire 3 g id_func3 [2:0] $end
$var wire 5 h id_alu_opt [4:0] $end
$var wire 2 i id_alu_b_in_rs2Data_or_imm32_or_4 [1:0] $end
$var wire 1 j id_alu_a_in_rs1_or_pc $end
$var wire 1 k forwardC $end
$var wire 2 l forwardB [1:0] $end
$var wire 2 m forwardA [1:0] $end
$var wire 1 n flush $end
$var wire 1 o ex_write_reg_enable $end
$var wire 2 p ex_write_ram_flag [1:0] $end
$var wire 1 q ex_wb_aluOut_or_memOut $end
$var wire 32 r ex_true_rs2_data [31:0] $end
$var wire 32 s ex_true_rs1_data [31:0] $end
$var wire 32 t ex_rs2_data [31:0] $end
$var wire 5 u ex_rs2_addr [4:0] $end
$var wire 32 v ex_rs1_data_add_imm_32_for_pc [31:0] $end
$var wire 32 w ex_rs1_data [31:0] $end
$var wire 5 x ex_rs1_addr [4:0] $end
$var wire 5 y ex_rd_addr [4:0] $end
$var wire 2 z ex_pc_condition [1:0] $end
$var wire 32 { ex_pc_add_imm_32 [31:0] $end
$var wire 32 | ex_pc [31:0] $end
$var wire 3 } ex_load_ram_flag [2:0] $end
$var wire 32 ~ ex_inAluB [31:0] $end
$var wire 32 !" ex_inAluA [31:0] $end
$var wire 32 "" ex_imm_32 [31:0] $end
$var wire 1 #" ex_branch_enable $end
$var wire 32 $" ex_alu_out [31:0] $end
$var wire 5 %" ex_alu_opt [4:0] $end
$var wire 2 &" ex_alu_b_in_rs2Data_or_imm32_or_4 [1:0] $end
$var wire 1 '" ex_alu_a_in_rs1_or_pc $end
$scope module ALU_INSTANCE $end
$var wire 32 (" b [31:0] $end
$var wire 5 )" alu_opt [4:0] $end
$var wire 32 *" a [31:0] $end
$var reg 32 +" alu_out [31:0] $end
$var reg 1 #" branch_enable $end
$upscope $end
$scope module CONTROLLER_INSTANCE $end
$var wire 7 ," opcode [6:0] $end
$var wire 7 -" func7 [6:0] $end
$var wire 3 ." func3 [2:0] $end
$var reg 1 j alu_a_in_rs1_or_pc $end
$var reg 2 /" alu_b_in_rs2Data_or_imm32_or_4 [1:0] $end
$var reg 5 0" alu_opt [4:0] $end
$var reg 3 1" load_ram_flag [2:0] $end
$var reg 2 2" pc_condition [1:0] $end
$var reg 1 Z wb_aluOut_or_memOut $end
$var reg 2 3" write_ram_flag [1:0] $end
$var reg 1 X write_reg_enable $end
$upscope $end
$scope module EX_ME $end
$var wire 1 " clk $end
$var wire 32 4" ex_alu_out [31:0] $end
$var wire 1 #" ex_branch_enable $end
$var wire 1 ! rst $end
$var wire 1 n flush $end
$var wire 1 o ex_write_reg_enable $end
$var wire 2 5" ex_write_ram_flag [1:0] $end
$var wire 1 q ex_wb_aluOut_or_memOut $end
$var wire 32 6" ex_rs2_data [31:0] $end
$var wire 5 7" ex_rs2_addr [4:0] $end
$var wire 32 8" ex_rs1_data_add_imm_32_for_pc [31:0] $end
$var wire 5 9" ex_rd_addr [4:0] $end
$var wire 2 :" ex_pc_condition [1:0] $end
$var wire 32 ;" ex_pc_add_imm_32 [31:0] $end
$var wire 3 <" ex_load_ram_flag [2:0] $end
$var reg 32 =" me_alu_out [31:0] $end
$var reg 1 R me_branch_enable $end
$var reg 3 >" me_load_ram_flag [2:0] $end
$var reg 32 ?" me_pc_add_imm_32 [31:0] $end
$var reg 2 @" me_pc_condition [1:0] $end
$var reg 5 A" me_rd_addr [4:0] $end
$var reg 32 B" me_rs1_data_add_imm_32_for_pc [31:0] $end
$var reg 5 C" me_rs2_addr [4:0] $end
$var reg 32 D" me_rs2_data [31:0] $end
$var reg 1 J me_wb_aluOut_or_memOut $end
$var reg 2 E" me_write_ram_flag [1:0] $end
$var reg 1 H me_write_reg_enable $end
$upscope $end
$scope module FORWARD_UNIT $end
$var wire 5 F" me_rd_addr [4:0] $end
$var wire 5 G" me_rs2_addr [4:0] $end
$var wire 1 H me_write_reg_enable $end
$var wire 1 & wb_write_reg_enable $end
$var wire 5 H" wb_rd_addr [4:0] $end
$var wire 5 I" ex_rs2_addr [4:0] $end
$var wire 5 J" ex_rs1_addr [4:0] $end
$var reg 2 K" ex_forwardA [1:0] $end
$var reg 2 L" ex_forwardB [1:0] $end
$var reg 1 k me_forwardC $end
$upscope $end
$scope module HAZARD_DETECTION_UNIT $end
$var wire 5 M" id_rs2_addr [4:0] $end
$var wire 5 N" id_rs1_addr [4:0] $end
$var wire 5 O" ex_rd_addr [4:0] $end
$var wire 3 P" ex_load_ram_flag [2:0] $end
$var reg 1 G pause $end
$upscope $end
$scope module ID_EX_INSTANCE $end
$var wire 1 " clk $end
$var wire 1 j id_alu_a_in_rs1_or_pc $end
$var wire 2 Q" id_alu_b_in_rs2Data_or_imm32_or_4 [1:0] $end
$var wire 5 R" id_alu_opt [4:0] $end
$var wire 3 S" id_load_ram_flag [2:0] $end
$var wire 2 T" id_pc_condition [1:0] $end
$var wire 1 Z id_wb_aluOut_or_memOut $end
$var wire 2 U" id_write_ram_flag [1:0] $end
$var wire 1 X id_write_reg_enable $end
$var wire 1 G pause $end
$var wire 1 ! rst $end
$var wire 32 V" id_rs2_data [31:0] $end
$var wire 5 W" id_rs2_addr [4:0] $end
$var wire 32 X" id_rs1_data [31:0] $end
$var wire 5 Y" id_rs1_addr [4:0] $end
$var wire 5 Z" id_rd_addr [4:0] $end
$var wire 32 [" id_pc [31:0] $end
$var wire 32 \" id_imm_32 [31:0] $end
$var wire 1 n flush $end
$var reg 1 '" ex_alu_a_in_rs1_or_pc $end
$var reg 2 ]" ex_alu_b_in_rs2Data_or_imm32_or_4 [1:0] $end
$var reg 5 ^" ex_alu_opt [4:0] $end
$var reg 32 _" ex_imm_32 [31:0] $end
$var reg 3 `" ex_load_ram_flag [2:0] $end
$var reg 32 a" ex_pc [31:0] $end
$var reg 2 b" ex_pc_condition [1:0] $end
$var reg 5 c" ex_rd_addr [4:0] $end
$var reg 5 d" ex_rs1_addr [4:0] $end
$var reg 32 e" ex_rs1_data [31:0] $end
$var reg 5 f" ex_rs2_addr [4:0] $end
$var reg 32 g" ex_rs2_data [31:0] $end
$var reg 1 q ex_wb_aluOut_or_memOut $end
$var reg 2 h" ex_write_ram_flag [1:0] $end
$var reg 1 o ex_write_reg_enable $end
$upscope $end
$scope module ID_INSTANCE $end
$var wire 5 i" rs2_addr [4:0] $end
$var wire 5 j" rs1_addr [4:0] $end
$var wire 5 k" rd_addr [4:0] $end
$var wire 7 l" opcode [6:0] $end
$var wire 32 m" instr [31:0] $end
$var wire 7 n" func7 [6:0] $end
$var wire 3 o" func3 [2:0] $end
$upscope $end
$scope module IF_ID_INSTANCE $end
$var wire 1 " clk $end
$var wire 1 G pause $end
$var wire 1 p" pc_from_rom_ready $end
$var wire 1 ! rst $end
$var wire 32 q" if_pc [31:0] $end
$var wire 32 r" if_instr [31:0] $end
$var wire 1 n flush $end
$var reg 32 s" id_instr [31:0] $end
$var reg 32 t" id_pc [31:0] $end
$upscope $end
$scope module IMM_INSTANCE $end
$var wire 32 u" instr [31:0] $end
$var wire 7 v" opcode [6:0] $end
$var reg 32 w" imm_32 [31:0] $end
$upscope $end
$scope module ME_WB $end
$var wire 1 " clk $end
$var wire 32 x" me_alu_out [31:0] $end
$var wire 5 y" me_rd_addr [4:0] $end
$var wire 1 J me_wb_aluOut_or_memOut $end
$var wire 1 H me_write_reg_enable $end
$var wire 1 ! rst $end
$var wire 32 z" me_ram_out [31:0] $end
$var reg 32 {" wb_alu_out [31:0] $end
$var reg 32 |" wb_ram_out [31:0] $end
$var reg 5 }" wb_rd_addr [4:0] $end
$var reg 1 ' wb_wb_aluOut_or_memOut $end
$var reg 1 & wb_write_reg_enable $end
$upscope $end
$scope module MUX_ALU_A_INSTANCE $end
$var wire 32 ~" b [31:0] $end
$var wire 1 '" signal $end
$var wire 32 !# out [31:0] $end
$var wire 32 "# a [31:0] $end
$upscope $end
$scope module MUX_ALU_B_INSTANCE $end
$var wire 32 ## b [31:0] $end
$var wire 32 $# c [31:0] $end
$var wire 2 %# signal [1:0] $end
$var wire 32 &# out [31:0] $end
$var wire 32 '# a [31:0] $end
$upscope $end
$scope module MUX_FORWARD_A $end
$var wire 32 (# a [31:0] $end
$var wire 32 )# b [31:0] $end
$var wire 2 *# signal [1:0] $end
$var wire 32 +# out [31:0] $end
$var wire 32 ,# c [31:0] $end
$upscope $end
$scope module MUX_FORWARD_B $end
$var wire 32 -# a [31:0] $end
$var wire 32 .# b [31:0] $end
$var wire 2 /# signal [1:0] $end
$var wire 32 0# out [31:0] $end
$var wire 32 1# c [31:0] $end
$upscope $end
$scope module MUX_ME_INSTANCE $end
$var wire 32 2# a [31:0] $end
$var wire 32 3# out [31:0] $end
$var wire 1 k signal $end
$var wire 32 4# b [31:0] $end
$upscope $end
$scope module MUX_WB $end
$var wire 32 5# a [31:0] $end
$var wire 32 6# b [31:0] $end
$var wire 1 ' signal $end
$var wire 32 7# out [31:0] $end
$upscope $end
$scope module NEXT_PC_INSTANCE $end
$var wire 1 R branch_enable $end
$var wire 1 8# clk $end
$var wire 32 9# pc [31:0] $end
$var wire 32 :# pc_add_imm_32 [31:0] $end
$var wire 2 ;# pc_condition [1:0] $end
$var wire 32 <# rs1_data_add_imm_32_for_pc [31:0] $end
$var wire 1 =# rst $end
$var wire 32 ># pc_add_four [31:0] $end
$var reg 1 n flush $end
$var reg 32 ?# next_pc [31:0] $end
$upscope $end
$scope module PC_ADD_4_INSTANCE $end
$var wire 1 " clk $end
$var wire 1 F pc_from_rom_ready $end
$var wire 32 @# pc [31:0] $end
$var reg 32 A# pc_add_four [31:0] $end
$upscope $end
$scope module PC_INSTANCE $end
$var wire 1 " clk $end
$var wire 32 B# next_pc [31:0] $end
$var wire 1 G pause $end
$var wire 1 ! rst $end
$var wire 32 C# pc_rom_addr [31:0] $end
$var reg 32 D# pc [31:0] $end
$upscope $end
$scope module PC_OPERAND_INSTANCE $end
$var wire 32 E# imm_32 [31:0] $end
$var wire 32 F# pc [31:0] $end
$var wire 1 G# pc_from_rom_ready $end
$var wire 32 H# rs1_data [31:0] $end
$var reg 32 I# pc_add_imm_32 [31:0] $end
$var reg 32 J# rs1_data_add_imm_32_for_pc [31:0] $end
$upscope $end
$scope module RAM_INSTANCE $end
$var wire 1 " clk $end
$var wire 3 K# load_ram_flag [2:0] $end
$var wire 32 L# ram_0 [31:0] $end
$var wire 32 M# ram_1 [31:0] $end
$var wire 32 N# ram_2 [31:0] $end
$var wire 32 O# ram_3 [31:0] $end
$var wire 32 P# ram_4 [31:0] $end
$var wire 32 Q# ram_5 [31:0] $end
$var wire 32 R# ram_6 [31:0] $end
$var wire 32 S# ram_7 [31:0] $end
$var wire 32 T# ram_8 [31:0] $end
$var wire 32 U# ram_addr [31:0] $end
$var wire 1 ! rst $end
$var wire 32 V# write_ram_data [31:0] $end
$var wire 2 W# write_ram_flag [1:0] $end
$var reg 32 X# ram_out [31:0] $end
$upscope $end
$scope module REG_FILE $end
$var wire 1 " clk $end
$var wire 5 Y# rd_addr [4:0] $end
$var wire 32 Z# rd_write_data [31:0] $end
$var wire 32 [# reg_0 [31:0] $end
$var wire 32 \# reg_1 [31:0] $end
$var wire 32 ]# reg_10 [31:0] $end
$var wire 32 ^# reg_11 [31:0] $end
$var wire 32 _# reg_12 [31:0] $end
$var wire 32 `# reg_13 [31:0] $end
$var wire 32 a# reg_14 [31:0] $end
$var wire 32 b# reg_15 [31:0] $end
$var wire 32 c# reg_2 [31:0] $end
$var wire 32 d# reg_3 [31:0] $end
$var wire 32 e# reg_4 [31:0] $end
$var wire 32 f# reg_5 [31:0] $end
$var wire 32 g# reg_6 [31:0] $end
$var wire 32 h# reg_7 [31:0] $end
$var wire 32 i# reg_8 [31:0] $end
$var wire 32 j# reg_9 [31:0] $end
$var wire 5 k# rs1_addr [4:0] $end
$var wire 5 l# rs2_addr [4:0] $end
$var wire 1 ! rst $end
$var wire 1 & write_reg_enable $end
$var wire 32 m# rs2_data [31:0] $end
$var wire 32 n# rs1_data [31:0] $end
$upscope $end
$scope module ROM_INSTANCE $end
$var wire 1 " clk $end
$var wire 32 o# pc [31:0] $end
$var reg 4 p# delay_counter [3:0] $end
$var reg 32 q# instr [31:0] $end
$var reg 1 F ready $end
$upscope $end
$upscope $end
$upscope $end
$enddefinitions $end
$comment Show the parameter values. $end
$dumpall
$end
#0
$dumpvars
bx q#
b0 p#
b0 o#
bx n#
bx m#
bx l#
bx k#
bx j#
bx i#
bx h#
bx g#
bx f#
bx e#
bx d#
bx c#
bx b#
bx a#
bx `#
bx _#
bx ^#
bx ]#
bx \#
bx [#
bx Z#
bx Y#
bx X#
bx W#
bx V#
bx U#
bx T#
bx S#
bx R#
bx Q#
bx P#
bx O#
bx N#
bx M#
bx L#
bx K#
bx J#
bx I#
bx H#
zG#
bx F#
bx E#
b0 D#
b0 C#
bx B#
bx A#
b0 @#
bx ?#
bx >#
z=#
bx <#
bx ;#
bx :#
bz 9#
z8#
bx 7#
bx 6#
bx 5#
bx 4#
bx 3#
bz 2#
bx 1#
bx 0#
bx /#
bx .#
bx -#
bx ,#
bx +#
bx *#
bx )#
bx (#
bx '#
bx &#
bx %#
b100 $#
bx ##
bx "#
bx !#
bx ~"
bx }"
bx |"
bx {"
bx z"
bx y"
bx x"
bx w"
bx v"
bx u"
bx t"
bx s"
bx r"
b0 q"
zp"
bx o"
bx n"
bx m"
bx l"
bx k"
bx j"
bx i"
bx h"
bx g"
bx f"
bx e"
bx d"
bx c"
bx b"
bx a"
bx `"
bx _"
bx ^"
bx ]"
bx \"
bx ["
bx Z"
bx Y"
bx X"
bx W"
bx V"
bx U"
bx T"
bx S"
bx R"
bx Q"
bx P"
bx O"
bx N"
bx M"
bx L"
bx K"
bx J"
bx I"
bx H"
bx G"
bx F"
bx E"
bx D"
bx C"
bx B"
bx A"
bx @"
bx ?"
bx >"
bx ="
bx <"
bx ;"
bx :"
bx 9"
bx 8"
bx 7"
bx 6"
bx 5"
bx 4"
bx 3"
bx 2"
bx 1"
bx 0"
bx /"
bx ."
bx -"
bx ,"
bx +"
bx *"
bx )"
bx ("
x'"
bx &"
bx %"
bx $"
x#"
bx ""
bx !"
bx ~
bx }
bx |
bx {
bx z
bx y
bx x
bx w
bx v
bx u
bx t
bx s
bx r
xq
bx p
xo
xn
bx m
bx l
xk
xj
bx i
bx h
bx g
bx f
bx e
bx d
bx c
bx b
bx a
bx `
bx _
bx ^
bx ]
bx \
bx [
xZ
bx Y
xX
bx W
bx V
b0 U
bx T
bx S
xR
bx Q
bx P
bx O
bx N
bx M
bx L
bx K
xJ
bx I
xH
xG
1F
b0 E
bx D
bx C
bx B
bx A
bx @
bx ?
bx >
bx =
bx <
bx ;
bx :
bx 9
bx 8
bx 7
bx 6
bx 5
bx 4
bx 3
bx 2
bx 1
bx 0
bx /
bx .
bx -
bx ,
bx +
bx *
bx )
bx (
x'
x&
bx %
bz $
b0 #
1"
z!
$end
#20000
0"
#40000
0n
b100 V
b100 ?#
b100 B#
b0 e
b0 \"
b0 w"
b0xxxxxxxxxxxxxxxxxxxxxxxxxxxxxx E
b0xxxxxxxxxxxxxxxxxxxxxxxxxxxxxx C#
b0 [
b0 V"
b0 m#
b0 ]
b0 X"
b0 n#
0G
b0 h
b0 0"
b0 R"
b0 `
b0 2"
b0 T"
b0 c
b0 1"
b0 S"
b0 Y
b0 3"
b0 U"
b1 i
b1 /"
b1 Q"
0j
0Z
1X
b10011 v"
b0 f
b0 -"
b0 n"
b0 g
b0 ."
b0 o"
b0 _
b0 Z"
b0 k"
b0 Y#
b0 \
b0 M"
b0 W"
b0 i"
b0 l#
b0 ^
b0 N"
b0 Y"
b0 j"
b0 k#
b10011 b
b10011 ,"
b10011 l"
b100 T
b100 >#
b100 A#
bx U
bx q"
bx @#
bx D#
bx o#
0F
b1101 W
b1101 r"
b1101 q#
b1 p#
b10011 d
b10011 m"
b10011 s"
b10011 u"
1"
b1 #
#60000
0"
#80000
b0 !"
b0 *"
b0 !#
b1 E
b1 C#
b0 r
b0 6"
b0 '#
b0 0#
b0 s
b0 "#
b0 +#
b0 H#
0k
b0 l
b0 L"
b0 /#
b0 m
b0 K"
b0 *#
b0 ~
b0 ("
b0 &#
b0 $"
b0 +"
b0 4"
0#"
b0 t
b0 g"
b0 -#
b0 w
b0 e"
b0 (#
b0 ""
b0 _"
b0 ##
b0 E#
b0 u
b0 7"
b0 I"
b0 f"
b0 x
b0 J"
b0 d"
b0 y
b0 9"
b0 O"
b0 c"
b0 z
b0 :"
b0 b"
b0 }
b0 <"
b0 P"
b0 `"
0q
b0 p
b0 5"
b0 h"
1o
b1 &"
b1 ]"
b1 %#
0'"
b0 %"
b0 )"
b0 ^"
b10 p#
b100 U
b100 q"
b100 @#
b100 D#
b100 o#
1"
b10 #
#100000
0"
#120000
b0 N
b0 z"
b0 X#
b11 p#
b0 K
b0 C"
b0 G"
b0 M
b0 A"
b0 F"
b0 y"
b0 %
b0 3#
b0 V#
b0 D"
b0 S
b0 ="
b0 x"
b0 )#
b0 .#
b0 U#
0R
b0 O
b0 @"
b0 ;#
b0 Q
b0 >"
b0 K#
b0 I
b0 E"
b0 W#
0J
0H
1"
b11 #
#140000
0"
#160000
b0 (
b0 ,#
b0 1#
b0 4#
b0 7#
b0 Z#
b0 )
b0 H"
b0 }"
b0 +
b0 {"
b0 5#
b0 *
b0 |"
b0 6#
0&
0'
b100 p#
1"
b100 #
#180000
0"
#200000
b101 p#
1"
b101 #
#220000
0"
#240000
b110 p#
1"
b110 #
#260000
0"
#280000
b11111110000000010000000100010011 W
b11111110000000010000000100010011 r"
b11111110000000010000000100010011 q#
1F
b0 p#
1"
b111 #
#300000
0"
#320000
b1000 V
b1000 ?#
b1000 B#
0F
b1101 W
b1101 r"
b1101 q#
b1 p#
b1000 T
b1000 >#
b1000 A#
1"
b1000 #
#340000
0"
#360000
b10 E
b10 C#
b1000 U
b1000 q"
b1000 @#
b1000 D#
b1000 o#
b10 p#
1"
b1001 #
#380000
0"
#400000
b11 p#
1"
b1010 #
#420000
0"
#440000
b100 p#
1"
b1011 #
#460000
0"
#480000
b101 p#
1"
b1100 #
#500000
0"
#520000
b110 p#
1"
b1101 #
#540000
0"
#560000
b100000010010111000100011 W
b100000010010111000100011 r"
b100000010010111000100011 q#
1F
b0 p#
1"
b1110 #
#580000
0"
#600000
b1100 V
b1100 ?#
b1100 B#
b1100 T
b1100 >#
b1100 A#
0F
b1101 W
b1101 r"
b1101 q#
b1 p#
1"
b1111 #
#620000
0"
#640000
b11 E
b11 C#
b10 p#
b1100 U
b1100 q"
b1100 @#
b1100 D#
b1100 o#
1"
b10000 #
#660000
0"
#680000
b11 p#
1"
b10001 #
#700000
0"
#720000
b100 p#
1"
b10010 #
#740000
0"
#760000
b101 p#
1"
b10011 #
#780000
0"
#800000
b110 p#
1"
b10100 #
#820000
0"
#840000
b10000000010000010000010011 W
b10000000010000010000010011 r"
b10000000010000010000010011 q#
1F
b0 p#
1"
b10101 #
#860000
0"
#880000
b10000 V
b10000 ?#
b10000 B#
0F
b1101 W
b1101 r"
b1101 q#
b1 p#
b10000 T
b10000 >#
b10000 A#
1"
b10110 #
#900000
0"
#920000
b100 E
b100 C#
b10000 U
b10000 q"
b10000 @#
b10000 D#
b10000 o#
b10 p#
1"
b10111 #
#940000
0"
#960000
b11 p#
1"
b11000 #
#980000
0"
#1000000
b100 p#
1"
b11001 #
#1020000
0"
#1040000
b101 p#
1"
b11010 #
#1060000
0"
#1080000
b110 p#
1"
b11011 #
#1100000
0"
#1120000
b11111110101001000010011000100011 W
b11111110101001000010011000100011 r"
b11111110101001000010011000100011 q#
1F
b0 p#
1"
b11100 #
#1140000
0"
#1160000
b10100 V
b10100 ?#
b10100 B#
b10100 T
b10100 >#
b10100 A#
0F
b1101 W
b1101 r"
b1101 q#
b1 p#
1"
b11101 #
#1180000
0"
#1200000
b101 E
b101 C#
b10 p#
b10100 U
b10100 q"
b10100 @#
b10100 D#
b10100 o#
1"
b11110 #
#1220000
0"
#1240000
b11 p#
1"
b11111 #
#1260000
0"
#1280000
b100 p#
1"
b100000 #
#1300000
0"
#1320000
b101 p#
1"
b100001 #
#1340000
0"
#1360000
b110 p#
1"
b100010 #
#1380000
0"
#1400000
b11111110110001000010011110000011 W
b11111110110001000010011110000011 r"
b11111110110001000010011110000011 q#
1F
b0 p#
1"
b100011 #
#1420000
0"
#1440000
b11000 V
b11000 ?#
b11000 B#
0F
b1101 W
b1101 r"
b1101 q#
b1 p#
b11000 T
b11000 >#
b11000 A#
1"
b100100 #
#1460000
0"
#1480000
b110 E
b110 C#
b11000 U
b11000 q"
b11000 @#
b11000 D#
b11000 o#
b10 p#
1"
b100101 #
#1500000
0"
#1520000
b11 p#
1"
b100110 #
#1540000
0"
#1560000
b100 p#
1"
b100111 #
#1580000
0"
#1600000
b101 p#
1"
b101000 #
#1620000
0"
#1640000
b110 p#
1"
b101001 #
#1660000
0"
#1680000
b1111010011110000011 W
b1111010011110000011 r"
b1111010011110000011 q#
1F
b0 p#
1"
b101010 #
#1700000
0"
#1720000
b11100 V
b11100 ?#
b11100 B#
b11100 T
b11100 >#
b11100 A#
0F
b1101 W
b1101 r"
b1101 q#
b1 p#
1"
b101011 #
#1740000
0"
#1760000
b111 E
b111 C#
b10 p#
b11100 U
b11100 q"
b11100 @#
b11100 D#
b11100 o#
1"
b101100 #
#1780000
0"
#1800000
b11 p#
1"
b101101 #
#1820000
0"
#1840000
b100 p#
1"
b101110 #
#1860000
0"
#1880000
b101 p#
1"
b101111 #
#1900000
0"
#1920000
b110 p#
1"
b110000 #
#1940000
0"
#1960000
b101001111000011100010011 W
b101001111000011100010011 r"
b101001111000011100010011 q#
1F
b0 p#
1"
b110001 #
#1980000
0"
#2000000
b100000 V
b100000 ?#
b100000 B#
0F
b1101 W
b1101 r"
b1101 q#
b1 p#
b100000 T
b100000 >#
b100000 A#
1"
b110010 #
#2020000
0"
#2040000
b1000 E
b1000 C#
b100000 U
b100000 q"
b100000 @#
b100000 D#
b100000 o#
b10 p#
1"
b110011 #
#2060000
0"
#2080000
b11 p#
1"
b110100 #
#2100000
0"
#2120000
b100 p#
1"
b110101 #
#2140000
0"
#2160000
b101 p#
1"
b110110 #
#2180000
0"
#2200000
b110 p#
1"
b110111 #
#2220000
0"
#2240000
b11111110110001000010011110000011 W
b11111110110001000010011110000011 r"
b11111110110001000010011110000011 q#
1F
b0 p#
1"
b111000 #
#2260000
0"
#2280000
b100100 V
b100100 ?#
b100100 B#
b100100 T
b100100 >#
b100100 A#
0F
b1101 W
b1101 r"
b1101 q#
b1 p#
1"
b111001 #
#2300000
0"
#2320000
b1001 E
b1001 C#
b10 p#
b100100 U
b100100 q"
b100100 @#
b100100 D#
b100100 o#
1"
b111010 #
#2340000
0"
#2360000
b11 p#
1"
b111011 #
#2380000
0"
#2400000
b100 p#
1"
b111100 #
#2420000
0"
#2440000
b101 p#
1"
b111101 #
#2460000
0"
#2480000
b110 p#
1"
b111110 #
#2500000
0"
#2520000
b111001111010000000100011 W
b111001111010000000100011 r"
b111001111010000000100011 q#
1F
b0 p#
1"
b111111 #
#2540000
0"
#2560000
b101000 V
b101000 ?#
b101000 B#
0F
b1101 W
b1101 r"
b1101 q#
b1 p#
b101000 T
b101000 >#
b101000 A#
1"
b1000000 #
#2580000
0"
#2600000
b1010 E
b1010 C#
b101000 U
b101000 q"
b101000 @#
b101000 D#
b101000 o#
b10 p#
1"
b1000001 #
#2620000
0"
#2640000
b11 p#
1"
b1000010 #
#2660000
0"
#2680000
b100 p#
1"
b1000011 #
#2700000
0"
#2720000
b101 p#
1"
b1000100 #
#2740000
0"
#2760000
b110 p#
1"
b1000101 #
#2780000
0"
#2800000
b10011 W
b10011 r"
b10011 q#
1F
b0 p#
1"
b1000110 #
#2820000
0"
#2840000
b101100 V
b101100 ?#
b101100 B#
b101100 T
b101100 >#
b101100 A#
0F
b1101 W
b1101 r"
b1101 q#
b1 p#
1"
b1000111 #
#2860000
0"
#2880000
b1011 E
b1011 C#
b10 p#
b101100 U
b101100 q"
b101100 @#
b101100 D#
b101100 o#
1"
b1001000 #
#2900000
0"
#2920000
b11 p#
1"
b1001001 #
#2940000
0"
#2960000
b100 p#
1"
b1001010 #
#2980000
0"
#3000000
b101 p#
1"
b1001011 #
#3020000
0"
#3040000
b110 p#
1"
b1001100 #
#3060000
0"
#3080000
b1110000010010010000000011 W
b1110000010010010000000011 r"
b1110000010010010000000011 q#
1F
b0 p#
1"
b1001101 #
#3100000
0"
#3120000
b110000 V
b110000 ?#
b110000 B#
0F
b1101 W
b1101 r"
b1101 q#
b1 p#
b110000 T
b110000 >#
b110000 A#
1"
b1001110 #
#3140000
0"
#3160000
b1100 E
b1100 C#
b110000 U
b110000 q"
b110000 @#
b110000 D#
b110000 o#
b10 p#
1"
b1001111 #
#3180000
0"
#3200000
b11 p#
1"
b1010000 #
#3220000
0"
#3240000
b100 p#
1"
b1010001 #
#3260000
0"
#3280000
b101 p#
1"
b1010010 #
#3300000
0"
#3320000
b110 p#
1"
b1010011 #
#3340000
0"
#3360000
b10000000010000000100010011 W
b10000000010000000100010011 r"
b10000000010000000100010011 q#
1F
b0 p#
1"
b1010100 #
#3380000
0"
#3400000
b110100 V
b110100 ?#
b110100 B#
b110100 T
b110100 >#
b110100 A#
0F
b1101 W
b1101 r"
b1101 q#
b1 p#
1"
b1010101 #
#3420000
0"
#3440000
b1101 E
b1101 C#
b10 p#
b110100 U
b110100 q"
b110100 @#
b110100 D#
b110100 o#
1"
b1010110 #
#3460000
0"
#3480000
b11 p#
1"
b1010111 #
#3500000
0"
#3520000
b100 p#
1"
b1011000 #
#3540000
0"
#3560000
b101 p#
1"
b1011001 #
#3580000
0"
#3600000
b110 p#
1"
b1011010 #
#3620000
0"
#3640000
b1000000001100111 W
b1000000001100111 r"
b1000000001100111 q#
1F
b0 p#
1"
b1011011 #
#3660000
0"
#3680000
b111000 V
b111000 ?#
b111000 B#
0F
b1101 W
b1101 r"
b1101 q#
b1 p#
b111000 T
b111000 >#
b111000 A#
1"
b1011100 #
#3700000
0"
#3720000
b1110 E
b1110 C#
b111000 U
b111000 q"
b111000 @#
b111000 D#
b111000 o#
b10 p#
1"
b1011101 #
#3740000
0"
#3760000
b11 p#
1"
b1011110 #
#3780000
0"
#3800000
b100 p#
1"
b1011111 #
